{
    "power_up_registers_master": [
        "EPRXDLLCONFIG",
        "EPRXLOCKFILTER",
        "EPRXLOCKFILTER2",
        "LDCONFIGH",
        "EPRX0CONTROL",
        "EPRX00CHNCNTR",
        "EPRX1CONTROL",
        "EPRX10CHNCNTR",
        "EPRX2CONTROL",
        "EPRX20CHNCNTR",
        "EPRX3CONTROL",
        "EPRX30CHNCNTR",
        "EPRX4CONTROL",
        "EPRX40CHNCNTR",
        "EPRX5CONTROL",
        "EPRX50CHNCNTR",
        "EQCONFIG",
        "EPTXDATARATE",
        "EPTX10ENABLE",
        "EPTX32ENABLE",
        "EPTX00CHNCNTR",
        "EPTX01_00CHNCNTR",
        "EPTX02CHNCNTR",
        "EPTX03_02CHNCNTR",
        "EPTX10CHNCNTR",
        "EPTX11_10CHNCNTR",
        "EPTX12CHNCNTR",
        "EPTX13_12CHNCNTR",
        "EPTX20CHNCNTR",
        "EPTX21_20CHNCNTR",
        "EPTX22CHNCNTR",
        "EPTX23_22CHNCNTR",
        "EPTX30CHNCNTR",
        "EPTX31_30CHNCNTR",
        "EPTX32CHNCNTR",
        "EPTX33_32CHNCNTR",
        "POWERUP2"
        ],
    "power_up_registers_slave": [
        "REFCLK",
        "EPRXDLLCONFIG",
        "EPRXLOCKFILTER",
        "EPRXLOCKFILTER2",
        "LDCONFIGH",
        "EPRX0CONTROL",
        "EPRX00CHNCNTR",
        "EPRX1CONTROL",
        "EPRX10CHNCNTR",
        "EPRX2CONTROL",
        "EPRX20CHNCNTR",
        "EPRX3CONTROL",
        "EPRX30CHNCNTR",
        "EPRX4CONTROL",
        "EPRX40CHNCNTR",
        "EPRX5CONTROL",
        "EPRX50CHNCNTR",
        "POWERUP2"
    ],
    "lpgbt": {
        "REFCLK": {
            "REFCLKACBIAS": [0, 0, 0, 0],
            "REFCLKFORCEENABLE": [0, 0, 0, 0],
            "REFCLKTERM": [0, 0, 0, 0]
        },
        "EPCLK19CHNCNTRH": {
            "EPCLK19DRIVESTRENGTH": [7, 0, 0, 0],
            "EPCLK19FREQ": [1, 0, 0, 0],
            "EPCLK19INVERT": [0, 0, 0, 0],
            "EPCLK19LOWRES": [0, 0, 0, 0]
        },
        "EPCLK19CHNCNTRL": {
            "EPCLK19PREEMPHASISMODE": [0, 0, 0, 0],
            "EPCLK19PREEMPHASISSTRENGTH": [0, 0, 0, 0],
            "EPCLK19PREEMPHASISWIDTH": [0, 0, 0, 0]
        },
        "EPCLK26CHNCNTRH": {
            "EPCLK26DRIVESTRENGTH": [7, 0, 0, 0],
            "EPCLK26FREQ": [1, 0, 0, 0],
            "EPCLK26INVERT": [0, 0, 0, 0],
            "EPCLK26LOWRES": [0, 0, 0, 0]
        },
        "EPCLK26CHNCNTRL": {
            "EPCLK26PREEMPHASISMODE": [0, 0, 0, 0],
            "EPCLK26PREEMPHASISSTRENGTH": [0, 0, 0, 0],
            "EPCLK26PREEMPHASISWIDTH": [0, 0, 0, 0]
        },
        "EPCLK2CHNCNTRH": {
            "EPCLK2DRIVESTRENGTH": [7, 0, 0, 0],
            "EPCLK2FREQ": [1, 0, 0, 0],
            "EPCLK2INVERT": [0, 0, 0, 0],
            "EPCLK2LOWRES": [0, 0, 0, 0]
        },
        "EPCLK2CHNCNTRL": {
            "EPCLK2PREEMPHASISMODE": [0, 0, 0, 0],
            "EPCLK2PREEMPHASISSTRENGTH": [0, 0, 0, 0],
            "EPCLK2PREEMPHASISWIDTH": [0, 0, 0, 0]
        },
        "EPCLK5CHNCNTRH": {
            "EPCLK5DRIVESTRENGTH": [7, 7, 7, 7],
            "EPCLK5FREQ": [6, 6, 6, 6],
            "EPCLK5INVERT": [0, 0, 0, 0],
            "EPCLK5LOWRES": [0, 0, 0, 0]
        },
        "EPCLK5CHNCNTRL": {
            "EPCLK5PREEMPHASISMODE": [3, 3, 3, 3],
            "EPCLK5PREEMPHASISSTRENGTH": [3, 3, 3, 3],
            "EPCLK5PREEMPHASISWIDTH": [0, 0, 0, 0]
        },
        "EPRX00CHNCNTR": {
            "EPRX00ACBIAS": [0, 0, 0, 0],
            "EPRX00EQ": [0, 0, 0, 0],
            "EPRX00INVERT": [1, 1, 1, 1],
            "EPRX00PHASESELECT": [0, 0, 0, 0],
            "EPRX00TERM": [1, 1, 1, 1]
        },
        "EPRX0CONTROL": {
            "EPRX00ENABLE": [1, 1, 1, 1],
            "EPRX01ENABLE": [0, 0, 0, 0],
            "EPRX02ENABLE": [0, 0, 0, 0],
            "EPRX03ENABLE": [0, 0, 0, 0],
            "EPRX0DATARATE": [3, 3, 3, 3],
            "EPRX0TRACKMODE": [2, 2, 2, 2]
        },
        "EPRX10CHNCNTR": {
            "EPRX10ACBIAS": [0, 0, 0, 0],
            "EPRX10EQ": [0, 0, 0, 0],
            "EPRX10INVERT": [1, 1, 1, 1],
            "EPRX10PHASESELECT": [0, 0, 0, 0],
            "EPRX10TERM": [1, 1, 1, 1]
        },
        "EPRX1CONTROL": {
            "EPRX10ENABLE": [1, 1, 1, 1],
            "EPRX11ENABLE": [0, 0, 0, 0],
            "EPRX12ENABLE": [0, 0, 0, 0],
            "EPRX13ENABLE": [0, 0, 0, 0],
            "EPRX1DATARATE": [3, 3, 3, 3],
            "EPRX1TRACKMODE": [2, 2, 2, 2]
        },
        "EPRX20CHNCNTR": {
            "EPRX20ACBIAS": [0, 0, 0, 0],
            "EPRX20EQ": [0, 0, 0, 0],
            "EPRX20INVERT": [1, 1, 1, 1],
            "EPRX20PHASESELECT": [0, 0, 0, 0],
            "EPRX20TERM": [1, 1, 1, 1]
        },
        "EPRX2CONTROL": {
            "EPRX20ENABLE": [1, 1, 1, 1],
            "EPRX21ENABLE": [0, 0, 0, 0],
            "EPRX22ENABLE": [0, 0, 0, 0],
            "EPRX23ENABLE": [0, 0, 0, 0],
            "EPRX2DATARATE": [3, 3, 3, 3],
            "EPRX2TRACKMODE": [2, 2, 2, 2]
        },
        "EPRX30CHNCNTR": {
            "EPRX30ACBIAS": [0, 0, 0, 0],
            "EPRX30EQ": [0, 0, 0, 0],
            "EPRX30INVERT": [1, 1, 1, 1],
            "EPRX30PHASESELECT": [0, 0, 0, 0],
            "EPRX30TERM": [1, 1, 1, 1]
        },
        "EPRX3CONTROL": {
            "EPRX30ENABLE": [1, 1, 1, 1],
            "EPRX31ENABLE": [0, 0, 0, 0],
            "EPRX32ENABLE": [0, 0, 0, 0],
            "EPRX33ENABLE": [0, 0, 0, 0],
            "EPRX3DATARATE": [3, 3, 3, 3],
            "EPRX3TRACKMODE": [2, 2, 2, 2]
        },
        "EPRX40CHNCNTR": {
            "EPRX40ACBIAS": [0, 0, 0, 0],
            "EPRX40EQ": [0, 0, 0, 0],
            "EPRX40INVERT": [0, 0, 0, 0],
            "EPRX40PHASESELECT": [0, 0, 0, 0],
            "EPRX40TERM": [1, 1, 1, 1]
        },
        "EPRX4CONTROL": {
            "EPRX40ENABLE": [1, 1, 1, 1],
            "EPRX41ENABLE": [0, 0, 0, 0],
            "EPRX42ENABLE": [0, 0, 0, 0],
            "EPRX43ENABLE": [0, 0, 0, 0],
            "EPRX4DATARATE": [3, 3, 3, 3],
            "EPRX4TRACKMODE": [2, 2, 2, 2]
        },
        "EPRX50CHNCNTR": {
            "EPRX50ACBIAS": [0, 0, 0, 0],
            "EPRX50EQ": [0, 0, 0, 0],
            "EPRX50INVERT": [0, 0, 0, 0],
            "EPRX50PHASESELECT": [0, 0, 0, 0],
            "EPRX50TERM": [1, 1, 1, 1]
        },
        "EPRX5CONTROL": {
            "EPRX50ENABLE": [1, 1, 1, 1],
            "EPRX51ENABLE": [0, 0, 0, 0],
            "EPRX52ENABLE": [0, 0, 0, 0],
            "EPRX53ENABLE": [0, 0, 0, 0],
            "EPRX5DATARATE": [3, 3, 3, 3],
            "EPRX5TRACKMODE": [2, 2, 2, 2]
        },
        "EPRXDLLCONFIG": {
            "EPRXDATAGATINGDISABLE": [0, 0, 0, 0],
            "EPRXDLLCOARSELOCKDETECTION": [1, 1, 1, 1],
            "EPRXDLLCONFIRMCOUNT": [2, 2, 2, 2],
            "EPRXDLLCURRENT": [1, 1, 1, 1],
            "EPRXDLLFSMCLKALWAYSON": [0, 0, 0, 0],
            "EPRXENABLEREINIT": [0, 0, 0, 0]
        },
        "EPRXLOCKFILTER": {
            "EPRXLOCKTHRESHOLD": [5, 5, 5, 5],
            "EPRXRELOCKTHRESHOLD": [5, 5, 5, 5]
        },
        "EPRXLOCKFILTER2": {
            "EPRXUNLOCKTHRESHOLD": [5, 5, 5, 5]
        },
        "EPTX00CHNCNTR": {
            "EPTX00DRIVESTRENGTH": [3, 0, 0, 0],
            "EPTX00PREEMPHASISMODE": [0, 0, 0, 0],
            "EPTX00PREEMPHASISSTRENGTH": [0, 0, 0, 0]
        },
        "EPTX01_00CHNCNTR": {
            "EPTX00INVERT": [0, 0, 0, 0],
            "EPTX00PREEMPHASISWIDTH": [0, 0, 0, 0],
            "EPTX01INVERT": [0, 0, 0, 0],
            "EPTX01PREEMPHASISWIDTH": [0, 0, 0, 0]
        },
        "EPTX02CHNCNTR": {
            "EPTX02DRIVESTRENGTH": [3, 0, 0, 0],
            "EPTX02PREEMPHASISMODE": [0, 0, 0, 0],
            "EPTX02PREEMPHASISSTRENGTH": [0, 0, 0, 0]
        },
        "EPTX03_02CHNCNTR": {
            "EPTX02INVERT": [0, 0, 0, 0],
            "EPTX02PREEMPHASISWIDTH": [0, 0, 0, 0],
            "EPTX03INVERT": [0, 0, 0, 0],
            "EPTX03PREEMPHASISWIDTH": [0, 0, 0, 0]
        },
        "EPTX10CHNCNTR": {
            "EPTX10DRIVESTRENGTH": [3, 0, 0, 0],
            "EPTX10PREEMPHASISMODE": [0, 0, 0, 0],
            "EPTX10PREEMPHASISSTRENGTH": [0, 0, 0, 0]
        },
        "EPTX10ENABLE": {
            "EPTX00ENABLE": [1, 0, 0, 0],
            "EPTX01ENABLE": [0, 0, 0, 0],
            "EPTX02ENABLE": [1, 0, 0, 0],
            "EPTX03ENABLE": [0, 0, 0, 0],
            "EPTX10ENABLE": [1, 0, 0, 0],
            "EPTX11ENABLE": [0, 0, 0, 0],
            "EPTX12ENABLE": [1, 0, 0, 0],
            "EPTX13ENABLE": [0, 0, 0, 0]
        },
        "EPTX11_10CHNCNTR": {
            "EPTX10INVERT": [0, 0, 0, 0],
            "EPTX10PREEMPHASISWIDTH": [0, 0, 0, 0],
            "EPTX11INVERT": [0, 0, 0, 0],
            "EPTX11PREEMPHASISWIDTH": [0, 0, 0, 0]
        },
        "EPTX12CHNCNTR": {
            "EPTX12DRIVESTRENGTH": [3, 0, 0, 0],
            "EPTX12PREEMPHASISMODE": [0, 0, 0, 0],
            "EPTX12PREEMPHASISSTRENGTH": [0, 0, 0, 0]
        },
        "EPTX13_12CHNCNTR": {
            "EPTX12INVERT": [0, 0, 0, 0],
            "EPTX12PREEMPHASISWIDTH": [0, 0, 0, 0],
            "EPTX13INVERT": [0, 0, 0, 0],
            "EPTX13PREEMPHASISWIDTH": [0, 0, 0, 0]
        },
        "EPTX20CHNCNTR": {
            "EPTX20DRIVESTRENGTH": [3, 0, 0, 0],
            "EPTX20PREEMPHASISMODE": [0, 0, 0, 0],
            "EPTX20PREEMPHASISSTRENGTH": [0, 0, 0, 0]
        },
        "EPTX21_20CHNCNTR": {
            "EPTX20INVERT": [1, 0, 0, 0],
            "EPTX20PREEMPHASISWIDTH": [0, 0, 0, 0],
            "EPTX21INVERT": [0, 0, 0, 0],
            "EPTX21PREEMPHASISWIDTH": [0, 0, 0, 0]
        },
        "EPTX22CHNCNTR": {
            "EPTX22DRIVESTRENGTH": [3, 0, 0, 0],
            "EPTX22PREEMPHASISMODE": [0, 0, 0, 0],
            "EPTX22PREEMPHASISSTRENGTH": [0, 0, 0, 0]
        },
        "EPTX23_22CHNCNTR": {
            "EPTX22INVERT": [1, 0, 0, 0],
            "EPTX22PREEMPHASISWIDTH": [0, 0, 0, 0],
            "EPTX23INVERT": [0, 0, 0, 0],
            "EPTX23PREEMPHASISWIDTH": [0, 0, 0, 0]
        },
        "EPTX30CHNCNTR": {
            "EPTX30DRIVESTRENGTH": [3, 0, 0, 0],
            "EPTX30PREEMPHASISMODE": [0, 0, 0, 0],
            "EPTX30PREEMPHASISSTRENGTH": [0, 0, 0, 0]
        },
        "EPTX31_30CHNCNTR": {
            "EPTX30INVERT": [1, 0, 0, 0],
            "EPTX30PREEMPHASISWIDTH": [0, 0, 0, 0],
            "EPTX31INVERT": [0, 0, 0, 0],
            "EPTX31PREEMPHASISWIDTH": [0, 0, 0, 0]
        },
        "EPTX32CHNCNTR": {
            "EPTX32DRIVESTRENGTH": [3, 0, 0, 0],
            "EPTX32PREEMPHASISMODE": [0, 0, 0, 0],
            "EPTX32PREEMPHASISSTRENGTH": [0, 0, 0, 0]
        },
        "EPTX32ENABLE": {
            "EPTX20ENABLE": [1, 0, 0, 0],
            "EPTX21ENABLE": [0, 0, 0, 0],
            "EPTX22ENABLE": [1, 0, 0, 0],
            "EPTX23ENABLE": [0, 0, 0, 0],
            "EPTX30ENABLE": [1, 0, 0, 0],
            "EPTX31ENABLE": [0, 0, 0, 0],
            "EPTX32ENABLE": [1, 0, 0, 0],
            "EPTX33ENABLE": [0, 0, 0, 0]
        },
        "EPTX33_32CHNCNTR": {
            "EPTX32INVERT": [1, 0, 0, 0],
            "EPTX32PREEMPHASISWIDTH": [0, 0, 0, 0],
            "EPTX33INVERT": [0, 0, 0, 0],
            "EPTX33PREEMPHASISWIDTH": [0, 0, 0, 0]
        },
        "EPTXDATARATE": {
            "EPTX0DATARATE": [2, 0, 0, 0],
            "EPTX1DATARATE": [2, 0, 0, 0],
            "EPTX2DATARATE": [2, 0, 0, 0],
            "EPTX3DATARATE": [2, 0, 0, 0]
        },
        "EQCONFIG": {
            "EQATTENUATION": [3, 0, 0, 0],
            "EQCAP": [0, 0, 0, 0]
        },
        "FAMAXHEADERFOUNDCOUNT": {
            "FAMAXHEADERFOUNDCOUNT": [16, 0, 0, 0]
        },
        "FAMAXHEADERFOUNDCOUNTAFTERNF": {
            "FAMAXHEADERFOUNDCOUNTAFTERNF": [16, 0, 0, 0]
        },
        "FAMAXHEADERNOTFOUNDCOUNT": {
            "FAMAXHEADERNOTFOUNDCOUNT": [16, 0, 0, 0]
        },
        "I2CM0CONFIG": {
            "I2CM0ADDRESSEXT": [0, 0, 0, 0],
            "I2CM0SCLDRIVESTRENGTH": [0, 0, 0, 0],
            "I2CM0SCLPULLUPENABLE": [1, 0, 0, 0],
            "I2CM0SDADRIVESTRENGTH": [0, 0, 0, 0],
            "I2CM0SDAPULLUPENABLE": [1, 0, 0, 0]
        },
        "I2CM1CONFIG": {
            "I2CM1ADDRESSEXT": [0, 0, 0, 0],
            "I2CM1SCLDRIVESTRENGTH": [0, 0, 0, 0],
            "I2CM1SCLPULLUPENABLE": [1, 0, 0, 0],
            "I2CM1SDADRIVESTRENGTH": [0, 0, 0, 0],
            "I2CM1SDAPULLUPENABLE": [1, 0, 0, 0]
        },
        "I2CM2CONFIG": {
            "I2CM2ADDRESSEXT": [0, 0, 0, 0],
            "I2CM2SCLDRIVESTRENGTH": [1, 0, 0, 0],
            "I2CM2SCLPULLUPENABLE": [0, 0, 0, 0],
            "I2CM2SDADRIVESTRENGTH": [0, 0, 0, 0],
            "I2CM2SDAPULLUPENABLE": [1, 0, 0, 0]
        },
        "LDCONFIGH": {
            "LDEMPHASISENABLE": [0, 0, 0, 0],
            "LDMODULATIONCURRENT": [127, 127, 127, 127]
        },
        "POWERUP2": {
            "DLLCONFIGDONE": [1, 1, 1, 1],
            "PLLCONFIGDONE": [1, 1, 1, 1]
        }
    },
    "gbcr": {
        "CH1DOWNLINK0": {
            "TX1DISDLEMP": [0, 0, 0, 0],
            "TX1DLATT": [3, 3, 3, 3],
            "TX1DLSR": [5, 5, 5, 5]
        },
        "CH1DOWNLINK1": {
            "TX1DISDLBIAS": [0, 0, 0, 0],
            "TX1DISDLLPFBIAS": [1, 1, 1, 1]
        },
        "CH1UPLINK0": {
            "CH1CMLAMPLSEL": [7, 7, 7, 7],
            "CH1DISEQLF": [1, 1, 1, 1],
            "CH1EQATT": [3, 3, 3, 3]
        },
        "CH1UPLINK1": {
            "CH1CTLEHFSR": [8, 8, 8, 8],
            "CH1CTLEMFSR": [8, 8, 8, 8]
        },
        "CH1UPLINK2": {
            "CH1DIS": [0, 0, 0, 0],
            "CH1DISDFF": [1, 1, 1, 1],
            "CH1DISLPF": [0, 0, 0, 0]
        },
        "CH2DOWNLINK0": {
            "TX2DISDLEMP": [0, 0, 0, 0],
            "TX2DLATT": [3, 3, 3, 3],
            "TX2DLSR": [5, 5, 5, 5]
        },
        "CH2DOWNLINK1": {
            "TX2DISDLBIAS": [0, 0, 0, 0],
            "TX2DISDLLPFBIAS": [1, 1, 1, 1]
        },
        "CH2UPLINK0": {
            "CH2CMLAMPLSEL": [7, 7, 7, 7],
            "CH2DISEQLF": [1, 1, 1, 1],
            "CH2EQATT": [3, 3, 3, 3]
        },
        "CH2UPLINK1": {
            "CH2CTLEHFSR": [8, 8, 8, 8],
            "CH2CTLEMFSR": [8, 8, 8, 8]
        },
        "CH2UPLINK2": {
            "CH2DIS": [0, 0, 0, 0],
            "CH2DISDFF": [1, 1, 1, 1],
            "CH2DISLPF": [0, 0, 0, 0]
        },
        "CH3UPLINK0": {
            "CH3CMLAMPLSEL": [7, 7, 7, 7],
            "CH3DISEQLF": [1, 1, 1, 1],
            "CH3EQATT": [3, 3, 3, 3]
        },
        "CH3UPLINK1": {
            "CH3CTLEHFSR": [8, 8, 8, 8],
            "CH3CTLEMFSR": [8, 8, 8, 8]
        },
        "CH3UPLINK2": {
            "CH3DIS": [0, 0, 0, 0],
            "CH3DISDFF": [1, 1, 1, 1],
            "CH3DISLPF": [0, 0, 0, 0]
        },
        "CH4UPLINK0": {
            "CH4CMLAMPLSEL": [7, 7, 7, 7],
            "CH4DISEQLF": [1, 1, 1, 1],
            "CH4EQATT": [3, 3, 3, 3]
        },
        "CH4UPLINK1": {
            "CH4CTLEHFSR": [8, 8, 8, 8],
            "CH4CTLEMFSR": [8, 8, 8, 8]
        },
        "CH4UPLINK2": {
            "CH4DIS": [0, 0, 0, 0],
            "CH4DISDFF": [1, 1, 1, 1],
            "CH4DISLPF": [0, 0, 0, 0]
        },
        "CH5UPLINK0": {
            "CH5CMLAMPLSEL": [7, 7, 7, 7],
            "CH5DISEQLF": [1, 1, 1, 1],
            "CH5EQATT": [3, 3, 3, 3]
        },
        "CH5UPLINK1": {
            "CH5CTLEHFSR": [8, 8, 8, 8],
            "CH5CTLEMFSR": [8, 8, 8, 8]
        },
        "CH5UPLINK2": {
            "CH5DIS": [0, 0, 0, 0],
            "CH5DISDFF": [1, 1, 1, 1],
            "CH5DISLPF": [0, 0, 0, 0]
        },
        "CH6UPLINK0": {
            "CH6CMLAMPLSEL": [7, 7, 7, 7],
            "CH6DISEQLF": [1, 1, 1, 1],
            "CH6EQATT": [3, 3, 3, 3]
        },
        "CH6UPLINK1": {
            "CH6CTLEHFSR": [8, 8, 8, 8],
            "CH6CTLEMFSR": [8, 8, 8, 8]
        },
        "CH6UPLINK2": {
            "CH6DIS": [0, 0, 0, 0],
            "CH6DISDFF": [1, 1, 1, 1],
            "CH6DISLPF": [0, 0, 0, 0]
        },
        "CH7UPLINK0": {
            "CH7CMLAMPLSEL": [7, 7, 7, 7],
            "CH7DISEQLF": [1, 1, 1, 1],
            "CH7EQATT": [3, 3, 3, 3]
        },
        "CH7UPLINK1": {
            "CH7CTLEHFSR": [8, 8, 8, 8],
            "CH7CTLEMFSR": [8, 8, 8, 8]
        },
        "CH7UPLINK2": {
            "CH7DIS": [0, 0, 0, 0],
            "CH7DISDFF": [1, 1, 1, 1],
            "CH7DISLPF": [0, 0, 0, 0]
        },
        "LVDSRXTX": {
            "DISTX": [0, 0, 0, 0],
            "RXEN": [1, 1, 1, 1],
            "RXENTERMINATION": [1, 1, 1, 1],
            "RXEQ": [0, 0, 0, 0],
            "RXINVDATA": [0, 0, 0, 0],
            "RXSETCM": [1, 1, 1, 1]
        },
        "PHASESHIFTER0": {
            "DLLCAPRESET": [0, 0, 0, 0],
            "DLLENABLE": [1, 1, 1, 1]
        },
        "PHASESHIFTER1": {
            "DLLCHARGEPUMPCURRENT": [15, 15, 15, 15],
            "DLLFORCEDOWN": [1, 1, 1, 1]
        },
        "PHASESHIFTER2": {
            "DLLCLOCKDELAYCH6": [5, 5, 5, 5],
            "DLLCLOCKDELAYCH7": [5, 5, 5, 5]
        },
        "PHASESHIFTER3": {
            "DLLCLOCKDELAYCH4": [5, 5, 5, 5],
            "DLLCLOCKDELAYCH5": [5, 5, 5, 5]
        },
        "PHASESHIFTER4": {
            "DLLCLOCKDELAYCH2": [5, 5, 5, 5],
            "DLLCLOCKDELAYCH3": [5, 5, 5, 5]
        },
        "PHASESHIFTER5": {
            "DLLCLOCKDELAYCH1": [5, 5, 5, 5],
            "DLLCLOCKDELAYCHTEST": [5, 5, 5, 5]
        }
    }
}
