{
    "power_up_registers_master": [
        "CLKGCONFIG0",
        "CLKGCONFIG1",
        "CLKGPLLRES",
        "CLKGPLLINTCUR",
        "CLKGPLLPROPCUR",
        "CLKGCDRPROPCUR",
        "CLKGCDRINTCUR",
        "CLKGCDRFFPROPCUR",
        "CLKGFLLINTCUR",
        "CLKGFFCAP",
        "CLKGCNTOVERRIDE",
        "CLKGOVERRIDECAPBANK",
        "CLKGWAITTIME",
        "CLKGLFCONFIG0",
        "CLKGLFCONFIG1",
        "EPRXDLLCONFIG",
        "EPRXLOCKFILTER",
        "EPRXLOCKFILTER2",
        "LDCONFIGH",
        "EPRX0CONTROL",
        "EPRX00CHNCNTR",
        "EPRX1CONTROL",
        "EPRX10CHNCNTR",
        "EPRX2CONTROL",
        "EPRX20CHNCNTR",
        "EPRX3CONTROL",
        "EPRX30CHNCNTR",
        "EPRX4CONTROL",
        "EPRX40CHNCNTR",
        "EPRX5CONTROL",
        "EPRX50CHNCNTR",
        "EQCONFIG",
        "FAMAXHEADERFOUNDCOUNT",
        "FAMAXHEADERFOUNDCOUNTAFTERNF",
        "FAMAXHEADERNOTFOUNDCOUNT",
        "EPTXDATARATE",
        "EPTX10ENABLE",
        "EPTX32ENABLE",
        "EPTX00CHNCNTR",
        "EPTX01_00CHNCNTR",
        "EPTX02CHNCNTR",
        "EPTX03_02CHNCNTR",
        "EPTX10CHNCNTR",
        "EPTX11_10CHNCNTR",
        "EPTX12CHNCNTR",
        "EPTX13_12CHNCNTR",
        "EPTX20CHNCNTR",
        "EPTX21_20CHNCNTR",
        "EPTX22CHNCNTR",
        "EPTX23_22CHNCNTR",
        "EPTX30CHNCNTR",
        "EPTX31_30CHNCNTR",
        "EPTX32CHNCNTR",
        "EPTX33_32CHNCNTR",
        "POWERUP2"
    ],

    "power_up_registers_slave": [
        "REFCLK",
        "CLKGCONFIG0",
        "CLKGCONFIG1",
        "CLKGPLLRES",
        "CLKGPLLINTCUR",
        "CLKGCDRINTCUR",
        "CLKGCDRFFPROPCUR",
        "CLKGFLLINTCUR",
        "CLKGFFCAP",
        "CLKGCNTOVERRIDE",
        "CLKGOVERRIDECAPBANK",
        "CLKGWAITTIME",
        "CLKGLFCONFIG0",
        "CLKGLFCONFIG1",
        "PSDLLCONFIG",
        "EPRXDLLCONFIG",
        "EPRXLOCKFILTER",
        "EPRXLOCKFILTER2",
        "LDCONFIGH",
        "EPRX0CONTROL",
        "EPRX00CHNCNTR",
        "EPRX1CONTROL",
        "EPRX10CHNCNTR",
        "EPRX2CONTROL",
        "EPRX20CHNCNTR",
        "EPRX3CONTROL",
        "EPRX30CHNCNTR",
        "EPRX4CONTROL",
        "EPRX40CHNCNTR",
        "EPRX5CONTROL",
        "EPRX50CHNCNTR",
        "POWERUP2"
    ],

    "lpgbt": {
        "ADCCAL0": {
            "ADCCALGAIN2SEHIGH": [0, 0, 0, 0]
        },
        "ADCCAL1": {
            "ADCCALGAIN2SELOW": [0, 0, 0, 0]
        },
        "ADCCAL10": {
            "ADCCALGAIN8DIFLOW": [0, 0, 0, 0]
        },
        "ADCCAL11": {
            "ADCCALGAIN8DIFHIGH": [0, 0, 0, 0],
            "ADCCALGAIN8DIRFLOW": [0, 0, 0, 0]
        },
        "ADCCAL12": {
            "ADCCALGAIN16DIFHIGH": [0, 0, 0, 0]
        },
        "ADCCAL13": {
            "ADCCALGAIN16DIFLOW": [0, 0, 0, 0]
        },
        "ADCCAL14": {
            "ADCCALGAIN16DIFHIGH": [0, 0, 0, 0],
            "ADCCALGAIN16DIRFLOW": [0, 0, 0, 0]
        },
        "ADCCAL2": {
            "ADCCALGAIN2SEHIGH": [0, 0, 0, 0],
            "ADCCALGAIN2SELOW": [0, 0, 0, 0]
        },
        "ADCCAL3": {
            "ADCCALGAIN2DIFHIGH": [0, 0, 0, 0]
        },
        "ADCCAL4": {
            "ADCCALGAIN2DIFLOW": [0, 0, 0, 0]
        },
        "ADCCAL5": {
            "ADCCALGAIN2DIFHIGH": [0, 0, 0, 0],
            "ADCCALGAIN2DIRFLOW": [0, 0, 0, 0]
        },
        "ADCCAL6": {
            "ADCCALGAIN4DIFHIGH": [0, 0, 0, 0]
        },
        "ADCCAL7": {
            "ADCCALGAIN4DIFLOW": [0, 0, 0, 0]
        },
        "ADCCAL8": {
            "ADCCALGAIN4DIFHIGH": [0, 0, 0, 0],
            "ADCCALGAIN4DIRFLOW": [0, 0, 0, 0]
        },
        "ADCCAL9": {
            "ADCCALGAIN8DIFHIGH": [0, 0, 0, 0]
        },
        "ADCCONFIG": {
            "ADCCONVERT": [0, 0, 0, 0],
            "ADCENABLE": [0, 0, 0, 0],
            "ADCGAINSELECT": [0, 0, 0, 0]
        },
        "ADCMON": {
            "TEMPSENSRESET": [0, 0, 0, 0],
            "VDDANMONENA": [0, 0, 0, 0],
            "VDDMONENA": [0, 0, 0, 0],
            "VDDRXMONENA": [0, 0, 0, 0],
            "VDDTXMONENA": [0, 0, 0, 0]
        },
        "ADCSELECT": {
            "ADCINNSELECT": [0, 0, 0, 0],
            "ADCINPSELECT": [0, 0, 0, 0]
        },
        "BERTCONFIG": {
            "BERTMEASTIME": [0, 0, 0, 0],
            "BERTSTART": [0, 0, 0, 0],
            "SKIPDISABLE": [0, 0, 0, 0]
        },
        "BERTDATAPATTERN0": {
            "BERTDATAPATTERN": [0, 0, 0, 0]
        },
        "BERTDATAPATTERN1": {
            "BERTDATAPATTERN": [0, 0, 0, 0]
        },
        "BERTDATAPATTERN2": {
            "BERTDATAPATTERN": [0, 0, 0, 0]
        },
        "BERTDATAPATTERN3": {
            "BERTDATAPATTERN": [0, 0, 0, 0]
        },
        "BERTSOURCE": {
            "BERTSOURCE": [0, 0, 0, 0]
        },
        "CHIPCONFIG": {
            "CHIPADDRESSBAR": [0, 0, 0, 0],
            "HIGHSPEEDDATAININVERT": [0, 0, 0, 0],
            "HIGHSPEEDDATAOUTINVERT": [0, 0, 0, 0]
        },
        "CHIPID0": {
            "CHIPID": [0, 0, 0, 0]
        },
        "CHIPID1": {
            "CHIPID": [0, 0, 0, 0]
        },
        "CHIPID2": {
            "CHIPID": [0, 0, 0, 0]
        },
        "CHIPID3": {
            "CHIPID": [0, 0, 0, 0]
        },
        "CLKGCDRFFPROPCUR": {
            "CLKGCDRFEEDFORWARDPROPCUR": [6, 6, 6, 6],
            "CLKGCDRFEEDFORWARDPROPCURWHENLOCKED": [6, 6, 6, 6]
        },
        "CLKGCDRINTCUR": {
            "CLKGCDRINTCUR": [5, 5, 5, 5],
            "CLKGCDRINTCURWHENLOCKED": [5, 5, 5, 5]
        },
        "CLKGCDRPROPCUR": {
            "CLKGCDRPROPCUR": [5, 5, 5, 5],
            "CLKGCDRPROPCURWHENLOCKED": [5, 5, 5, 5]
        },
        "CLKGCNTOVERRIDE": {
            "CDRCOCONNECTPLL": [0, 0, 0, 0],
            "CDRCODISDATACOUNTERREF": [0, 0, 0, 0],
            "CDRCODISDESVBIASGEN": [0, 0, 0, 0],
            "CDRCOENABLECDR": [0, 0, 0, 0],
            "CDRCOENABLEFD": [0, 0, 0, 0],
            "CDRCOENABLEPLL": [0, 0, 0, 0],
            "CDRCOREFCLKSEL": [0, 0, 0, 0],
            "CLKGCOOVERRIDEVC": [0, 0, 0, 0]
        },
        "CLKGCONFIG0": {
            "CLKGBIASGENCONFIG": [8, 8, 8, 8],
            "CLKGCALIBRATIONENDOFCOUNT": [14, 14, 14, 14]
        },
        "CLKGCONFIG1": {
            "CDRCONTROLOVERRIDEENABLE": [0, 0, 0, 0],
            "CLKGCDRRES": [1, 1, 1, 1],
            "CLKGDISABLEFRAMEALIGNERLOCKCONTROL": [0, 0, 0, 0],
            "CLKGVCODAC": [8, 8, 8, 8],
            "CLKGVCORAILMODE": [1, 1, 1, 1]
        },
        "CLKGFFCAP": {
            "CDRCOCONNECTCDR": [0, 0, 0, 0],
            "CLKGCAPBANKOVERRIDEENABLE": [0, 0, 0, 0],
            "CLKGFEEDFORWARDCAP": [3, 3, 3, 3],
            "CLKGFEEDFORWARDCAPWHENLOCKED": [3, 3, 3, 3]
        },
        "CLKGFLLINTCUR": {
            "CLKGFLLINTCUR": [5, 5, 5, 5],
            "CLKGFLLINTCURWHENLOCKED": [5, 5, 5, 5]
        },
        "CLKGLFCONFIG0": {
            "CLKGCAPBANKSELECT": [0, 0, 0, 0],
            "CLKGLOCKFILTERCLKALWAYSON": [0, 0, 0, 0],
            "CLKGLOCKFILTERENABLE": [1, 1, 1, 1],
            "CLKGLOCKFILTERLOCKTHRCOUNTER": [15, 15, 15, 15]
        },
        "CLKGLFCONFIG1": {
            "CLKGLOCKFILTERRELOCKTHRCOUNTER": [15, 15, 15, 15],
            "CLKGLOCKFILTERUNLOCKTHRCOUNTER": [15, 15, 15, 15]
        },
        "CLKGOVERRIDECAPBANK": {
            "CLKGCAPBANKSELECT": [0, 0, 0, 0]
        },
        "CLKGPLLINTCUR": {
            "CLKGPLLINTCUR": [9, 9, 9, 9],
            "CLKGPLLINTCURWHENLOCKED": [9, 9, 9, 9]
        },
        "CLKGPLLPROPCUR": {
            "CLKGPLLPROPCUR": [9, 9, 9, 9],
            "CLKGPLLPROPCURWHENLOCKED": [9, 9, 9, 9]
        },
        "CLKGPLLRES": {
            "CLKGPLLRES": [2, 2, 2, 2],
            "CLKGPLLRESWHENLOCKED": [2, 2, 2, 2]
        },
        "CLKGWAITTIME": {
            "CLKGWAITCDRTIME": [8, 8, 8, 8],
            "CLKGWAITPLLTIME": [8, 8, 8, 8]
        },
        "CLKTREE": {
            "CLKTREEADISABLE": [0, 0, 0, 0],
            "CLKTREEBDISABLE": [0, 0, 0, 0],
            "CLKTREECDISABLE": [0, 0, 0, 0],
            "CLKTREEMAGICNUMBER": [0, 0, 0, 0]
        },
        "CRC0": {
            "CRC32": [0, 0, 0, 0]
        },
        "CRC1": {
            "CRC32": [0, 0, 0, 0]
        },
        "CRC2": {
            "CRC32": [0, 0, 0, 0]
        },
        "CRC3": {
            "CRC32": [0, 0, 0, 0]
        },
        "CURDACCALH": {
            "CURDACCAL": [0, 0, 0, 0]
        },
        "CURDACCALL": {
            "CURDACCAL": [0, 0, 0, 0]
        },
        "CURDACCHN": {
            "CURDACCHNENABLE": [0, 0, 0, 0]
        },
        "CURDACVALUE": {
            "CURDACSELECT": [0, 0, 0, 0]
        },
        "DACCAL0": {
            "DACCALMINCODE": [0, 0, 0, 0]
        },
        "DACCAL1": {
            "DACCALMAXCODE": [0, 0, 0, 0]
        },
        "DACCAL2": {
            "DACCALMAXCODE": [0, 0, 0, 0],
            "DACCALMINCODE": [0, 0, 0, 0]
        },
        "DACCONFIGH": {
            "CURDACENABLE": [0, 0, 0, 0],
            "VOLDACENABLE": [0, 0, 0, 0],
            "VOLDACVALUE": [0, 0, 0, 0]
        },
        "DACCONFIGL": {
            "VOLDACVALUE": [0, 0, 0, 0]
        },
        "DATAPATH": {
            "DLDPBYPASDEINTERLEVEAR": [0, 0, 0, 0],
            "DLDPBYPASFECDECODER": [0, 0, 0, 0],
            "DLDPBYPASSDESCRAMBLER": [0, 0, 0, 0],
            "DLDPFECCOUNTERENABLE": [0, 0, 0, 0],
            "ULDPBYPASSFECCODER": [0, 0, 0, 0],
            "ULDPBYPASSINTERLEAVER": [0, 0, 0, 0],
            "ULDPBYPASSSCRAMBLER": [0, 0, 0, 0]
        },
        "DPDATAPATTERN0": {
            "DPDATAPATTERN": [0, 0, 0, 0]
        },
        "DPDATAPATTERN1": {
            "DPDATAPATTERN": [0, 0, 0, 0]
        },
        "DPDATAPATTERN2": {
            "DPDATAPATTERN": [0, 0, 0, 0]
        },
        "DPDATAPATTERN3": {
            "DPDATAPATTERN": [0, 0, 0, 0]
        },
        "EOMCONFIGH": {
            "EOMBYPASSPHASEINTERPOLATOR": [0, 0, 0, 0],
            "EOMENABLE": [0, 0, 0, 0],
            "EOMENDOFCOUNTSEL": [0, 0, 0, 0],
            "EOMSTART": [0, 0, 0, 0]
        },
        "EOMCONFIGL": {
            "EOMPHASESEL": [0, 0, 0, 0]
        },
        "EOMVOFSEL": {
            "EOMVOFSEL": [0, 0, 0, 0]
        },
        "EPCLK0CHNCNTRH": {
            "EPCLK0DRIVESTRENGTH": [0, 0, 0, 0],
            "EPCLK0FREQ": [0, 0, 0, 0],
            "EPCLK0INVERT": [0, 0, 0, 0],
            "EPCLK0LOWRES": [0, 0, 0, 0]
        },
        "EPCLK0CHNCNTRL": {
            "EPCLK0PREEMPHASISMODE": [0, 0, 0, 0],
            "EPCLK0PREEMPHASISSTRENGTH": [0, 0, 0, 0],
            "EPCLK0PREEMPHASISWIDTH": [0, 0, 0, 0]
        },
        "EPCLK10CHNCNTRH": {
            "EPCLK10DRIVESTRENGTH": [0, 0, 0, 0],
            "EPCLK10FREQ": [0, 0, 0, 0],
            "EPCLK10INVERT": [0, 0, 0, 0],
            "EPCLK10LOWRES": [0, 0, 0, 0]
        },
        "EPCLK10CHNCNTRL": {
            "EPCLK10PREEMPHASISMODE": [0, 0, 0, 0],
            "EPCLK10PREEMPHASISSTRENGTH": [0, 0, 0, 0],
            "EPCLK10PREEMPHASISWIDTH": [0, 0, 0, 0]
        },
        "EPCLK11CHNCNTRH": {
            "EPCLK11DRIVESTRENGTH": [0, 0, 0, 0],
            "EPCLK11FREQ": [0, 0, 0, 0],
            "EPCLK11INVERT": [0, 0, 0, 0],
            "EPCLK11LOWRES": [0, 0, 0, 0]
        },
        "EPCLK11CHNCNTRL": {
            "EPCLK11PREEMPHASISMODE": [0, 0, 0, 0],
            "EPCLK11PREEMPHASISSTRENGTH": [0, 0, 0, 0],
            "EPCLK11PREEMPHASISWIDTH": [0, 0, 0, 0]
        },
        "EPCLK12CHNCNTRH": {
            "EPCLK12DRIVESTRENGTH": [0, 0, 0, 0],
            "EPCLK12FREQ": [0, 0, 0, 0],
            "EPCLK12INVERT": [0, 0, 0, 0],
            "EPCLK12LOWRES": [0, 0, 0, 0]
        },
        "EPCLK12CHNCNTRL": {
            "EPCLK12PREEMPHASISMODE": [0, 0, 0, 0],
            "EPCLK12PREEMPHASISSTRENGTH": [0, 0, 0, 0],
            "EPCLK12PREEMPHASISWIDTH": [0, 0, 0, 0]
        },
        "EPCLK13CHNCNTRH": {
            "EPCLK13DRIVESTRENGTH": [0, 0, 0, 0],
            "EPCLK13FREQ": [0, 0, 0, 0],
            "EPCLK13INVERT": [0, 0, 0, 0],
            "EPCLK13LOWRES": [0, 0, 0, 0]
        },
        "EPCLK13CHNCNTRL": {
            "EPCLK13PREEMPHASISMODE": [0, 0, 0, 0],
            "EPCLK13PREEMPHASISSTRENGTH": [0, 0, 0, 0],
            "EPCLK13PREEMPHASISWIDTH": [0, 0, 0, 0]
        },
        "EPCLK14CHNCNTRH": {
            "EPCLK14DRIVESTRENGTH": [0, 0, 0, 0],
            "EPCLK14FREQ": [0, 0, 0, 0],
            "EPCLK14INVERT": [0, 0, 0, 0],
            "EPCLK14LOWRES": [0, 0, 0, 0]
        },
        "EPCLK14CHNCNTRL": {
            "EPCLK14PREEMPHASISMODE": [0, 0, 0, 0],
            "EPCLK14PREEMPHASISSTRENGTH": [0, 0, 0, 0],
            "EPCLK14PREEMPHASISWIDTH": [0, 0, 0, 0]
        },
        "EPCLK15CHNCNTRH": {
            "EPCLK15DRIVESTRENGTH": [0, 0, 0, 0],
            "EPCLK15FREQ": [0, 0, 0, 0],
            "EPCLK15INVERT": [0, 0, 0, 0],
            "EPCLK15LOWRES": [0, 0, 0, 0]
        },
        "EPCLK15CHNCNTRL": {
            "EPCLK15PREEMPHASISMODE": [0, 0, 0, 0],
            "EPCLK15PREEMPHASISSTRENGTH": [0, 0, 0, 0],
            "EPCLK15PREEMPHASISWIDTH": [0, 0, 0, 0]
        },
        "EPCLK16CHNCNTRH": {
            "EPCLK16DRIVESTRENGTH": [0, 0, 0, 0],
            "EPCLK16FREQ": [0, 0, 0, 0],
            "EPCLK16INVERT": [0, 0, 0, 0],
            "EPCLK16LOWRES": [0, 0, 0, 0]
        },
        "EPCLK16CHNCNTRL": {
            "EPCLK16PREEMPHASISMODE": [0, 0, 0, 0],
            "EPCLK16PREEMPHASISSTRENGTH": [0, 0, 0, 0],
            "EPCLK16PREEMPHASISWIDTH": [0, 0, 0, 0]
        },
        "EPCLK17CHNCNTRH": {
            "EPCLK17DRIVESTRENGTH": [0, 0, 0, 0],
            "EPCLK17FREQ": [0, 0, 0, 0],
            "EPCLK17INVERT": [0, 0, 0, 0],
            "EPCLK17LOWRES": [0, 0, 0, 0]
        },
        "EPCLK17CHNCNTRL": {
            "EPCLK17PREEMPHASISMODE": [0, 0, 0, 0],
            "EPCLK17PREEMPHASISSTRENGTH": [0, 0, 0, 0],
            "EPCLK17PREEMPHASISWIDTH": [0, 0, 0, 0]
        },
        "EPCLK18CHNCNTRH": {
            "EPCLK18DRIVESTRENGTH": [0, 0, 0, 0],
            "EPCLK18FREQ": [0, 0, 0, 0],
            "EPCLK18INVERT": [0, 0, 0, 0],
            "EPCLK18LOWRES": [0, 0, 0, 0]
        },
        "EPCLK18CHNCNTRL": {
            "EPCLK18PREEMPHASISMODE": [0, 0, 0, 0],
            "EPCLK18PREEMPHASISSTRENGTH": [0, 0, 0, 0],
            "EPCLK18PREEMPHASISWIDTH": [0, 0, 0, 0]
        },
        "EPCLK19CHNCNTRH": {
            "EPCLK19DRIVESTRENGTH": [7, 0, 0, 0],
            "EPCLK19FREQ": [1, 0, 0, 0],
            "EPCLK19INVERT": [0, 0, 0, 0],
            "EPCLK19LOWRES": [0, 0, 0, 0]
        },
        "EPCLK19CHNCNTRL": {
            "EPCLK19PREEMPHASISMODE": [0, 0, 0, 0],
            "EPCLK19PREEMPHASISSTRENGTH": [0, 0, 0, 0],
            "EPCLK19PREEMPHASISWIDTH": [0, 0, 0, 0]
        },
        "EPCLK1CHNCNTRH": {
            "EPCLK1DRIVESTRENGTH": [0, 0, 0, 0],
            "EPCLK1FREQ": [0, 0, 0, 0],
            "EPCLK1INVERT": [0, 0, 0, 0],
            "EPCLK1LOWRES": [0, 0, 0, 0]
        },
        "EPCLK1CHNCNTRL": {
            "EPCLK1PREEMPHASISMODE": [0, 0, 0, 0],
            "EPCLK1PREEMPHASISSTRENGTH": [0, 0, 0, 0],
            "EPCLK1PREEMPHASISWIDTH": [0, 0, 0, 0]
        },
        "EPCLK20CHNCNTRH": {
            "EPCLK20DRIVESTRENGTH": [0, 0, 0, 0],
            "EPCLK20FREQ": [0, 0, 0, 0],
            "EPCLK20INVERT": [0, 0, 0, 0],
            "EPCLK20LOWRES": [0, 0, 0, 0]
        },
        "EPCLK20CHNCNTRL": {
            "EPCLK20PREEMPHASISMODE": [0, 0, 0, 0],
            "EPCLK20PREEMPHASISSTRENGTH": [0, 0, 0, 0],
            "EPCLK20PREEMPHASISWIDTH": [0, 0, 0, 0]
        },
        "EPCLK21CHNCNTRH": {
            "EPCLK21DRIVESTRENGTH": [0, 0, 0, 0],
            "EPCLK21FREQ": [0, 0, 0, 0],
            "EPCLK21INVERT": [0, 0, 0, 0],
            "EPCLK21LOWRES": [0, 0, 0, 0]
        },
        "EPCLK21CHNCNTRL": {
            "EPCLK21PREEMPHASISMODE": [0, 0, 0, 0],
            "EPCLK21PREEMPHASISSTRENGTH": [0, 0, 0, 0],
            "EPCLK21PREEMPHASISWIDTH": [0, 0, 0, 0]
        },
        "EPCLK22CHNCNTRH": {
            "EPCLK22DRIVESTRENGTH": [0, 0, 0, 0],
            "EPCLK22FREQ": [0, 0, 0, 0],
            "EPCLK22INVERT": [0, 0, 0, 0],
            "EPCLK22LOWRES": [0, 0, 0, 0]
        },
        "EPCLK22CHNCNTRL": {
            "EPCLK22PREEMPHASISMODE": [0, 0, 0, 0],
            "EPCLK22PREEMPHASISSTRENGTH": [0, 0, 0, 0],
            "EPCLK22PREEMPHASISWIDTH": [0, 0, 0, 0]
        },
        "EPCLK23CHNCNTRH": {
            "EPCLK23DRIVESTRENGTH": [0, 0, 0, 0],
            "EPCLK23FREQ": [0, 0, 0, 0],
            "EPCLK23INVERT": [0, 0, 0, 0],
            "EPCLK23LOWRES": [0, 0, 0, 0]
        },
        "EPCLK23CHNCNTRL": {
            "EPCLK23PREEMPHASISMODE": [0, 0, 0, 0],
            "EPCLK23PREEMPHASISSTRENGTH": [0, 0, 0, 0],
            "EPCLK23PREEMPHASISWIDTH": [0, 0, 0, 0]
        },
        "EPCLK24CHNCNTRH": {
            "EPCLK24DRIVESTRENGTH": [0, 0, 0, 0],
            "EPCLK24FREQ": [0, 0, 0, 0],
            "EPCLK24INVERT": [0, 0, 0, 0],
            "EPCLK24LOWRES": [0, 0, 0, 0]
        },
        "EPCLK24CHNCNTRL": {
            "EPCLK24PREEMPHASISMODE": [0, 0, 0, 0],
            "EPCLK24PREEMPHASISSTRENGTH": [0, 0, 0, 0],
            "EPCLK24PREEMPHASISWIDTH": [0, 0, 0, 0]
        },
        "EPCLK25CHNCNTRH": {
            "EPCLK25DRIVESTRENGTH": [0, 0, 0, 0],
            "EPCLK25FREQ": [0, 0, 0, 0],
            "EPCLK25INVERT": [0, 0, 0, 0],
            "EPCLK25LOWRES": [0, 0, 0, 0]
        },
        "EPCLK25CHNCNTRL": {
            "EPCLK25PREEMPHASISMODE": [0, 0, 0, 0],
            "EPCLK25PREEMPHASISSTRENGTH": [0, 0, 0, 0],
            "EPCLK25PREEMPHASISWIDTH": [0, 0, 0, 0]
        },
        "EPCLK26CHNCNTRH": {
            "EPCLK26DRIVESTRENGTH": [7, 0, 0, 0],
            "EPCLK26FREQ": [1, 0, 0, 0],
            "EPCLK26INVERT": [0, 0, 0, 0],
            "EPCLK26LOWRES": [0, 0, 0, 0]
        },
        "EPCLK26CHNCNTRL": {
            "EPCLK26PREEMPHASISMODE": [0, 0, 0, 0],
            "EPCLK26PREEMPHASISSTRENGTH": [0, 0, 0, 0],
            "EPCLK26PREEMPHASISWIDTH": [0, 0, 0, 0]
        },
        "EPCLK27CHNCNTRH": {
            "EPCLK27DRIVESTRENGTH": [0, 0, 0, 0],
            "EPCLK27FREQ": [0, 0, 0, 0],
            "EPCLK27INVERT": [0, 0, 0, 0],
            "EPCLK27LOWRES": [0, 0, 0, 0]
        },
        "EPCLK27CHNCNTRL": {
            "EPCLK27PREEMPHASISMODE": [0, 0, 0, 0],
            "EPCLK27PREEMPHASISSTRENGTH": [0, 0, 0, 0],
            "EPCLK27PREEMPHASISWIDTH": [0, 0, 0, 0]
        },
        "EPCLK28CHNCNTRH": {
            "EPCLK28DRIVESTRENGTH": [0, 0, 0, 0],
            "EPCLK28FREQ": [0, 0, 0, 0],
            "EPCLK28INVERT": [0, 0, 0, 0],
            "EPCLK28LOWRES": [0, 0, 0, 0]
        },
        "EPCLK28CHNCNTRL": {
            "EPCLK28PREEMPHASISMODE": [0, 0, 0, 0],
            "EPCLK28PREEMPHASISSTRENGTH": [0, 0, 0, 0],
            "EPCLK28PREEMPHASISWIDTH": [0, 0, 0, 0]
        },
        "EPCLK2CHNCNTRH": {
            "EPCLK2DRIVESTRENGTH": [7, 0, 0, 0],
            "EPCLK2FREQ": [1, 0, 0, 0],
            "EPCLK2INVERT": [0, 0, 0, 0],
            "EPCLK2LOWRES": [0, 0, 0, 0]
        },
        "EPCLK2CHNCNTRL": {
            "EPCLK2PREEMPHASISMODE": [0, 0, 0, 0],
            "EPCLK2PREEMPHASISSTRENGTH": [0, 0, 0, 0],
            "EPCLK2PREEMPHASISWIDTH": [0, 0, 0, 0]
        },
        "EPCLK3CHNCNTRH": {
            "EPCLK3DRIVESTRENGTH": [0, 0, 0, 0],
            "EPCLK3FREQ": [0, 0, 0, 0],
            "EPCLK3INVERT": [0, 0, 0, 0],
            "EPCLK3LOWRES": [0, 0, 0, 0]
        },
        "EPCLK3CHNCNTRL": {
            "EPCLK3PREEMPHASISMODE": [0, 0, 0, 0],
            "EPCLK3PREEMPHASISSTRENGTH": [0, 0, 0, 0],
            "EPCLK3PREEMPHASISWIDTH": [0, 0, 0, 0]
        },
        "EPCLK4CHNCNTRH": {
            "EPCLK4DRIVESTRENGTH": [0, 0, 0, 0],
            "EPCLK4FREQ": [0, 0, 0, 0],
            "EPCLK4INVERT": [0, 0, 0, 0],
            "EPCLK4LOWRES": [0, 0, 0, 0]
        },
        "EPCLK4CHNCNTRL": {
            "EPCLK4PREEMPHASISMODE": [0, 0, 0, 0],
            "EPCLK4PREEMPHASISSTRENGTH": [0, 0, 0, 0],
            "EPCLK4PREEMPHASISWIDTH": [0, 0, 0, 0]
        },
        "EPCLK5CHNCNTRH": {
            "EPCLK5DRIVESTRENGTH": [7, 7, 7, 7],
            "EPCLK5FREQ": [6, 6, 6, 6],
            "EPCLK5INVERT": [0, 0, 0, 0],
            "EPCLK5LOWRES": [0, 0, 0, 0]
        },
        "EPCLK5CHNCNTRL": {
            "EPCLK5PREEMPHASISMODE": [3, 3, 3, 3],
            "EPCLK5PREEMPHASISSTRENGTH": [3, 3, 3, 3],
            "EPCLK5PREEMPHASISWIDTH": [0, 0, 0, 0]
        },
        "EPCLK6CHNCNTRH": {
            "EPCLK6DRIVESTRENGTH": [0, 0, 0, 0],
            "EPCLK6FREQ": [0, 0, 0, 0],
            "EPCLK6INVERT": [0, 0, 0, 0],
            "EPCLK6LOWRES": [0, 0, 0, 0]
        },
        "EPCLK6CHNCNTRL": {
            "EPCLK6PREEMPHASISMODE": [0, 0, 0, 0],
            "EPCLK6PREEMPHASISSTRENGTH": [0, 0, 0, 0],
            "EPCLK6PREEMPHASISWIDTH": [0, 0, 0, 0]
        },
        "EPCLK7CHNCNTRH": {
            "EPCLK7DRIVESTRENGTH": [0, 0, 0, 0],
            "EPCLK7FREQ": [0, 0, 0, 0],
            "EPCLK7INVERT": [0, 0, 0, 0],
            "EPCLK7LOWRES": [0, 0, 0, 0]
        },
        "EPCLK7CHNCNTRL": {
            "EPCLK7PREEMPHASISMODE": [0, 0, 0, 0],
            "EPCLK7PREEMPHASISSTRENGTH": [0, 0, 0, 0],
            "EPCLK7PREEMPHASISWIDTH": [0, 0, 0, 0]
        },
        "EPCLK8CHNCNTRH": {
            "EPCLK8DRIVESTRENGTH": [0, 0, 0, 0],
            "EPCLK8FREQ": [0, 0, 0, 0],
            "EPCLK8INVERT": [0, 0, 0, 0],
            "EPCLK8LOWRES": [0, 0, 0, 0]
        },
        "EPCLK8CHNCNTRL": {
            "EPCLK8PREEMPHASISMODE": [0, 0, 0, 0],
            "EPCLK8PREEMPHASISSTRENGTH": [0, 0, 0, 0],
            "EPCLK8PREEMPHASISWIDTH": [0, 0, 0, 0]
        },
        "EPCLK9CHNCNTRH": {
            "EPCLK9DRIVESTRENGTH": [0, 0, 0, 0],
            "EPCLK9FREQ": [0, 0, 0, 0],
            "EPCLK9INVERT": [0, 0, 0, 0],
            "EPCLK9LOWRES": [0, 0, 0, 0]
        },
        "EPCLK9CHNCNTRL": {
            "EPCLK9PREEMPHASISMODE": [0, 0, 0, 0],
            "EPCLK9PREEMPHASISSTRENGTH": [0, 0, 0, 0],
            "EPCLK9PREEMPHASISWIDTH": [0, 0, 0, 0]
        },
        "EPRX00CHNCNTR": {
            "EPRX00ACBIAS": [0, 0, 0, 0],
            "EPRX00EQ": [0, 0, 0, 0],
            "EPRX00INVERT": [1, 1, 1, 1],
            "EPRX00PHASESELECT": [0, 0, 0, 0],
            "EPRX00TERM": [1, 1, 1, 1]
        },
        "EPRX01CHNCNTR": {
            "EPRX01ACBIAS": [0, 0, 0, 0],
            "EPRX01EQ": [0, 0, 0, 0],
            "EPRX01INVERT": [0, 0, 0, 0],
            "EPRX01PHASESELECT": [0, 0, 0, 0],
            "EPRX01TERM": [0, 0, 0, 0]
        },
        "EPRX02CHNCNTR": {
            "EPRX02ACBIAS": [0, 0, 0, 0],
            "EPRX02EQ": [0, 0, 0, 0],
            "EPRX02INVERT": [0, 0, 0, 0],
            "EPRX02PHASESELECT": [0, 0, 0, 0],
            "EPRX02TERM": [0, 0, 0, 0]
        },
        "EPRX03CHNCNTR": {
            "EPRX03ACBIAS": [0, 0, 0, 0],
            "EPRX03EQ": [0, 0, 0, 0],
            "EPRX03INVERT": [0, 0, 0, 0],
            "EPRX03PHASESELECT": [0, 0, 0, 0],
            "EPRX03TERM": [0, 0, 0, 0]
        },
        "EPRX0CONTROL": {
            "EPRX00ENABLE": [1, 1, 1, 1],
            "EPRX01ENABLE": [0, 0, 0, 0],
            "EPRX02ENABLE": [0, 0, 0, 0],
            "EPRX03ENABLE": [0, 0, 0, 0],
            "EPRX0DATARATE": [3, 3, 3, 3],
            "EPRX0TRACKMODE": [2, 2, 2, 2]
        },
        "EPRX10CHNCNTR": {
            "EPRX10ACBIAS": [0, 0, 0, 0],
            "EPRX10EQ": [0, 0, 0, 0],
            "EPRX10INVERT": [1, 1, 1, 1],
            "EPRX10PHASESELECT": [0, 0, 0, 0],
            "EPRX10TERM": [1, 1, 1, 1]
        },
        "EPRX11CHNCNTR": {
            "EPRX11ACBIAS": [0, 0, 0, 0],
            "EPRX11EQ": [0, 0, 0, 0],
            "EPRX11INVERT": [0, 0, 0, 0],
            "EPRX11PHASESELECT": [0, 0, 0, 0],
            "EPRX11TERM": [0, 0, 0, 0]
        },
        "EPRX12CHNCNTR": {
            "EPRX12ACBIAS": [0, 0, 0, 0],
            "EPRX12EQ": [0, 0, 0, 0],
            "EPRX12INVERT": [0, 0, 0, 0],
            "EPRX12PHASESELECT": [0, 0, 0, 0],
            "EPRX12TERM": [0, 0, 0, 0]
        },
        "EPRX13CHNCNTR": {
            "EPRX13ACBIAS": [0, 0, 0, 0],
            "EPRX13EQ": [0, 0, 0, 0],
            "EPRX13INVERT": [0, 0, 0, 0],
            "EPRX13PHASESELECT": [0, 0, 0, 0],
            "EPRX13TERM": [0, 0, 0, 0]
        },
        "EPRX1CONTROL": {
            "EPRX10ENABLE": [1, 1, 1, 1],
            "EPRX11ENABLE": [0, 0, 0, 0],
            "EPRX12ENABLE": [0, 0, 0, 0],
            "EPRX13ENABLE": [0, 0, 0, 0],
            "EPRX1DATARATE": [3, 3, 3, 3],
            "EPRX1TRACKMODE": [2, 2, 2, 2]
        },
        "EPRX20CHNCNTR": {
            "EPRX20ACBIAS": [0, 0, 0, 0],
            "EPRX20EQ": [0, 0, 0, 0],
            "EPRX20INVERT": [1, 1, 1, 1],
            "EPRX20PHASESELECT": [0, 0, 0, 0],
            "EPRX20TERM": [1, 1, 1, 1]
        },
        "EPRX21CHNCNTR": {
            "EPRX21ACBIAS": [0, 0, 0, 0],
            "EPRX21EQ": [0, 0, 0, 0],
            "EPRX21INVERT": [0, 0, 0, 0],
            "EPRX21PHASESELECT": [0, 0, 0, 0],
            "EPRX21TERM": [0, 0, 0, 0]
        },
        "EPRX22CHNCNTR": {
            "EPRX22ACBIAS": [0, 0, 0, 0],
            "EPRX22EQ": [0, 0, 0, 0],
            "EPRX22INVERT": [0, 0, 0, 0],
            "EPRX22PHASESELECT": [0, 0, 0, 0],
            "EPRX22TERM": [0, 0, 0, 0]
        },
        "EPRX23CHNCNTR": {
            "EPRX23ACBIAS": [0, 0, 0, 0],
            "EPRX23EQ": [0, 0, 0, 0],
            "EPRX23INVERT": [0, 0, 0, 0],
            "EPRX23PHASESELECT": [0, 0, 0, 0],
            "EPRX23TERM": [0, 0, 0, 0]
        },
        "EPRX2CONTROL": {
            "EPRX20ENABLE": [1, 1, 1, 1],
            "EPRX21ENABLE": [0, 0, 0, 0],
            "EPRX22ENABLE": [0, 0, 0, 0],
            "EPRX23ENABLE": [0, 0, 0, 0],
            "EPRX2DATARATE": [3, 3, 3, 3],
            "EPRX2TRACKMODE": [2, 2, 2, 2]
        },
        "EPRX30CHNCNTR": {
            "EPRX30ACBIAS": [0, 0, 0, 0],
            "EPRX30EQ": [0, 0, 0, 0],
            "EPRX30INVERT": [1, 1, 1, 1],
            "EPRX30PHASESELECT": [0, 0, 0, 0],
            "EPRX30TERM": [1, 1, 1, 1]
        },
        "EPRX31CHNCNTR": {
            "EPRX31ACBIAS": [0, 0, 0, 0],
            "EPRX31EQ": [0, 0, 0, 0],
            "EPRX31INVERT": [0, 0, 0, 0],
            "EPRX31PHASESELECT": [0, 0, 0, 0],
            "EPRX31TERM": [0, 0, 0, 0]
        },
        "EPRX32CHNCNTR": {
            "EPRX32ACBIAS": [0, 0, 0, 0],
            "EPRX32EQ": [0, 0, 0, 0],
            "EPRX32INVERT": [0, 0, 0, 0],
            "EPRX32PHASESELECT": [0, 0, 0, 0],
            "EPRX32TERM": [0, 0, 0, 0]
        },
        "EPRX33CHNCNTR": {
            "EPRX33ACBIAS": [0, 0, 0, 0],
            "EPRX33EQ": [0, 0, 0, 0],
            "EPRX33INVERT": [0, 0, 0, 0],
            "EPRX33PHASESELECT": [0, 0, 0, 0],
            "EPRX33TERM": [0, 0, 0, 0]
        },
        "EPRX3CONTROL": {
            "EPRX30ENABLE": [1, 1, 1, 1],
            "EPRX31ENABLE": [0, 0, 0, 0],
            "EPRX32ENABLE": [0, 0, 0, 0],
            "EPRX33ENABLE": [0, 0, 0, 0],
            "EPRX3DATARATE": [3, 3, 3, 3],
            "EPRX3TRACKMODE": [2, 2, 2, 2]
        },
        "EPRX40CHNCNTR": {
            "EPRX40ACBIAS": [0, 0, 0, 0],
            "EPRX40EQ": [0, 0, 0, 0],
            "EPRX40INVERT": [0, 0, 0, 0],
            "EPRX40PHASESELECT": [0, 0, 0, 0],
            "EPRX40TERM": [1, 1, 1, 1]
        },
        "EPRX41CHNCNTR": {
            "EPRX41ACBIAS": [0, 0, 0, 0],
            "EPRX41EQ": [0, 0, 0, 0],
            "EPRX41INVERT": [0, 0, 0, 0],
            "EPRX41PHASESELECT": [0, 0, 0, 0],
            "EPRX41TERM": [0, 0, 0, 0]
        },
        "EPRX42CHNCNTR": {
            "EPRX42ACBIAS": [0, 0, 0, 0],
            "EPRX42EQ": [0, 0, 0, 0],
            "EPRX42INVERT": [0, 0, 0, 0],
            "EPRX42PHASESELECT": [0, 0, 0, 0],
            "EPRX42TERM": [0, 0, 0, 0]
        },
        "EPRX43CHNCNTR": {
            "EPRX43ACBIAS": [0, 0, 0, 0],
            "EPRX43EQ": [0, 0, 0, 0],
            "EPRX43INVERT": [0, 0, 0, 0],
            "EPRX43PHASESELECT": [0, 0, 0, 0],
            "EPRX43TERM": [0, 0, 0, 0]
        },
        "EPRX4CONTROL": {
            "EPRX40ENABLE": [1, 1, 1, 1],
            "EPRX41ENABLE": [0, 0, 0, 0],
            "EPRX42ENABLE": [0, 0, 0, 0],
            "EPRX43ENABLE": [0, 0, 0, 0],
            "EPRX4DATARATE": [3, 3, 3, 3],
            "EPRX4TRACKMODE": [2, 2, 2, 2]
        },
        "EPRX50CHNCNTR": {
            "EPRX50ACBIAS": [0, 0, 0, 0],
            "EPRX50EQ": [0, 0, 0, 0],
            "EPRX50INVERT": [0, 0, 0, 0],
            "EPRX50PHASESELECT": [0, 0, 0, 0],
            "EPRX50TERM": [1, 1, 1, 1]
        },
        "EPRX51CHNCNTR": {
            "EPRX51ACBIAS": [0, 0, 0, 0],
            "EPRX51EQ": [0, 0, 0, 0],
            "EPRX51INVERT": [0, 0, 0, 0],
            "EPRX51PHASESELECT": [0, 0, 0, 0],
            "EPRX51TERM": [0, 0, 0, 0]
        },
        "EPRX52CHNCNTR": {
            "EPRX52ACBIAS": [0, 0, 0, 0],
            "EPRX52EQ": [0, 0, 0, 0],
            "EPRX52INVERT": [0, 0, 0, 0],
            "EPRX52PHASESELECT": [0, 0, 0, 0],
            "EPRX52TERM": [0, 0, 0, 0]
        },
        "EPRX53CHNCNTR": {
            "EPRX53ACBIAS": [0, 0, 0, 0],
            "EPRX53EQ": [0, 0, 0, 0],
            "EPRX53INVERT": [0, 0, 0, 0],
            "EPRX53PHASESELECT": [0, 0, 0, 0],
            "EPRX53TERM": [0, 0, 0, 0]
        },
        "EPRX5CONTROL": {
            "EPRX50ENABLE": [1, 1, 1, 1],
            "EPRX51ENABLE": [0, 0, 0, 0],
            "EPRX52ENABLE": [0, 0, 0, 0],
            "EPRX53ENABLE": [0, 0, 0, 0],
            "EPRX5DATARATE": [3, 3, 3, 3],
            "EPRX5TRACKMODE": [2, 2, 2, 2]
        },
        "EPRX60CHNCNTR": {
            "EPRX60ACBIAS": [0, 0, 0, 0],
            "EPRX60EQ": [0, 0, 0, 0],
            "EPRX60INVERT": [0, 0, 0, 0],
            "EPRX60PHASESELECT": [0, 0, 0, 0],
            "EPRX60TERM": [0, 0, 0, 0]
        },
        "EPRX61CHNCNTR": {
            "EPRX61ACBIAS": [0, 0, 0, 0],
            "EPRX61EQ": [0, 0, 0, 0],
            "EPRX61INVERT": [0, 0, 0, 0],
            "EPRX61PHASESELECT": [0, 0, 0, 0],
            "EPRX61TERM": [0, 0, 0, 0]
        },
        "EPRX62CHNCNTR": {
            "EPRX62ACBIAS": [0, 0, 0, 0],
            "EPRX62EQ": [0, 0, 0, 0],
            "EPRX62INVERT": [0, 0, 0, 0],
            "EPRX62PHASESELECT": [0, 0, 0, 0],
            "EPRX62TERM": [0, 0, 0, 0]
        },
        "EPRX63CHNCNTR": {
            "EPRX63ACBIAS": [0, 0, 0, 0],
            "EPRX63EQ": [0, 0, 0, 0],
            "EPRX63INVERT": [0, 0, 0, 0],
            "EPRX63PHASESELECT": [0, 0, 0, 0],
            "EPRX63TERM": [0, 0, 0, 0]
        },
        "EPRX6CONTROL": {
            "EPRX60ENABLE": [0, 0, 0, 0],
            "EPRX61ENABLE": [0, 0, 0, 0],
            "EPRX62ENABLE": [0, 0, 0, 0],
            "EPRX63ENABLE": [0, 0, 0, 0],
            "EPRX6DATARATE": [0, 0, 0, 0],
            "EPRX6TRACKMODE": [0, 0, 0, 0]
        },
        "EPRXDLLCONFIG": {
            "EPRXDATAGATINGDISABLE": [0, 0, 0, 0],
            "EPRXDLLCOARSELOCKDETECTION": [1, 1, 1, 1],
            "EPRXDLLCONFIRMCOUNT": [2, 2, 2, 2],
            "EPRXDLLCURRENT": [1, 1, 1, 1],
            "EPRXDLLFSMCLKALWAYSON": [0, 0, 0, 0],
            "EPRXENABLEREINIT": [0, 0, 0, 0]
        },
        "EPRXECCHNCNTR": {
            "EPRXECACBIAS": [0, 0, 0, 0],
            "EPRXECINVERT": [0, 0, 0, 0],
            "EPRXECPHASESELECT": [0, 0, 0, 0],
            "EPRXECPULLUPENABLE": [0, 0, 0, 0],
            "EPRXECTERM": [0, 0, 0, 0]
        },
        "EPRXECCONTROL": {
            "EPRXECAUTOPHASERESETDISABLE": [0, 0, 0, 0],
            "EPRXECENABLE": [0, 0, 0, 0],
            "EPRXECTRACKMODE": [0, 0, 0, 0]
        },
        "EPRXEQ10CONTROL": {
            "EPRX00EQ": [0, 0, 0, 0],
            "EPRX01EQ": [0, 0, 0, 0],
            "EPRX02EQ": [0, 0, 0, 0],
            "EPRX03EQ": [0, 0, 0, 0],
            "EPRX10EQ": [0, 0, 0, 0],
            "EPRX11EQ": [0, 0, 0, 0],
            "EPRX12EQ": [0, 0, 0, 0],
            "EPRX13EQ": [0, 0, 0, 0]
        },
        "EPRXEQ32CONTROL": {
            "EPRX20EQ": [0, 0, 0, 0],
            "EPRX21EQ": [0, 0, 0, 0],
            "EPRX22EQ": [0, 0, 0, 0],
            "EPRX23EQ": [0, 0, 0, 0],
            "EPRX30EQ": [0, 0, 0, 0],
            "EPRX31EQ": [0, 0, 0, 0],
            "EPRX32EQ": [0, 0, 0, 0],
            "EPRX33EQ": [0, 0, 0, 0]
        },
        "EPRXEQ54CONTROL": {
            "EPRX40EQ": [0, 0, 0, 0],
            "EPRX41EQ": [0, 0, 0, 0],
            "EPRX42EQ": [0, 0, 0, 0],
            "EPRX43EQ": [0, 0, 0, 0],
            "EPRX50EQ": [0, 0, 0, 0],
            "EPRX51EQ": [0, 0, 0, 0],
            "EPRX52EQ": [0, 0, 0, 0],
            "EPRX53EQ": [0, 0, 0, 0]
        },
        "EPRXEQ6CONTROL": {
            "EPRX60EQ": [0, 0, 0, 0],
            "EPRX61EQ": [0, 0, 0, 0],
            "EPRX62EQ": [0, 0, 0, 0],
            "EPRX63EQ": [0, 0, 0, 0]
        },
        "EPRXLOCKFILTER": {
            "EPRXLOCKTHRESHOLD": [5, 5, 5, 5],
            "EPRXRELOCKTHRESHOLD": [5, 5, 5, 5]
        },
        "EPRXLOCKFILTER2": {
            "EPRXUNLOCKTHRESHOLD": [5, 5, 5, 5]
        },
        "EPRXPRBS0": {
            "EPRX00PRBSENABLE": [0, 0, 0, 0],
            "EPRX01PRBSENABLE": [0, 0, 0, 0],
            "EPRX02PRBSENABLE": [0, 0, 0, 0],
            "EPRX03PRBSENABLE": [0, 0, 0, 0],
            "EPRX10PRBSENABLE": [0, 0, 0, 0],
            "EPRX11PRBSENABLE": [0, 0, 0, 0],
            "EPRX12PRBSENABLE": [0, 0, 0, 0],
            "EPRX13PRBSENABLE": [0, 0, 0, 0]
        },
        "EPRXPRBS1": {
            "EPRX20PRBSENABLE": [0, 0, 0, 0],
            "EPRX21PRBSENABLE": [0, 0, 0, 0],
            "EPRX22PRBSENABLE": [0, 0, 0, 0],
            "EPRX23PRBSENABLE": [0, 0, 0, 0],
            "EPRX30PRBSENABLE": [0, 0, 0, 0],
            "EPRX31PRBSENABLE": [0, 0, 0, 0],
            "EPRX32PRBSENABLE": [0, 0, 0, 0],
            "EPRX33PRBSENABLE": [0, 0, 0, 0]
        },
        "EPRXPRBS2": {
            "EPRX40PRBSENABLE": [0, 0, 0, 0],
            "EPRX41PRBSENABLE": [0, 0, 0, 0],
            "EPRX42PRBSENABLE": [0, 0, 0, 0],
            "EPRX43PRBSENABLE": [0, 0, 0, 0],
            "EPRX50PRBSENABLE": [0, 0, 0, 0],
            "EPRX51PRBSENABLE": [0, 0, 0, 0],
            "EPRX52PRBSENABLE": [0, 0, 0, 0],
            "EPRX53PRBSENABLE": [0, 0, 0, 0]
        },
        "EPRXPRBS3": {
            "EPRX60PRBSENABLE": [0, 0, 0, 0],
            "EPRX61PRBSENABLE": [0, 0, 0, 0],
            "EPRX62PRBSENABLE": [0, 0, 0, 0],
            "EPRX63PRBSENABLE": [0, 0, 0, 0],
            "EPRXECPRBSENABLE": [0, 0, 0, 0]
        },
        "EPRXTRAIN10": {
            "EPRX0TRAIN": [0, 0, 0, 0],
            "EPRX1TRAIN": [0, 0, 0, 0]
        },
        "EPRXTRAIN32": {
            "EPRX2TRAIN": [0, 0, 0, 0],
            "EPRX3TRAIN": [0, 0, 0, 0]
        },
        "EPRXTRAIN54": {
            "EPRX4TRAIN": [0, 0, 0, 0],
            "EPRX5TRAIN": [0, 0, 0, 0]
        },
        "EPRXTRAINEC6": {
            "EPRX6TRAIN": [0, 0, 0, 0]
        },
        "EPTX00CHNCNTR": {
            "EPTX00DRIVESTRENGTH": [7, 0, 0, 0],
            "EPTX00PREEMPHASISMODE": [3, 0, 0, 0],
            "EPTX00PREEMPHASISSTRENGTH": [7, 0, 0, 0]
        },
        "EPTX01CHNCNTR": {
            "EPTX01DRIVESTRENGTH": [0, 0, 0, 0],
            "EPTX01PREEMPHASISMODE": [0, 0, 0, 0],
            "EPTX01PREEMPHASISSTRENGTH": [0, 0, 0, 0]
        },
        "EPTX01_00CHNCNTR": {
            "EPTX00INVERT": [0, 0, 0, 0],
            "EPTX00PREEMPHASISWIDTH": [0, 0, 0, 0],
            "EPTX01INVERT": [0, 0, 0, 0],
            "EPTX01PREEMPHASISWIDTH": [0, 0, 0, 0]
        },
        "EPTX02CHNCNTR": {
            "EPTX02DRIVESTRENGTH": [7, 0, 0, 0],
            "EPTX02PREEMPHASISMODE": [3, 0, 0, 0],
            "EPTX02PREEMPHASISSTRENGTH": [7, 0, 0, 0]
        },
        "EPTX03CHNCNTR": {
            "EPTX03DRIVESTRENGTH": [0, 0, 0, 0],
            "EPTX03PREEMPHASISMODE": [0, 0, 0, 0],
            "EPTX03PREEMPHASISSTRENGTH": [0, 0, 0, 0]
        },
        "EPTX03_02CHNCNTR": {
            "EPTX02INVERT": [0, 0, 0, 0],
            "EPTX02PREEMPHASISWIDTH": [0, 0, 0, 0],
            "EPTX03INVERT": [0, 0, 0, 0],
            "EPTX03PREEMPHASISWIDTH": [0, 0, 0, 0]
        },
        "EPTX10CHNCNTR": {
            "EPTX10DRIVESTRENGTH": [7, 0, 0, 0],
            "EPTX10PREEMPHASISMODE": [3, 0, 0, 0],
            "EPTX10PREEMPHASISSTRENGTH": [7, 0, 0, 0]
        },
        "EPTX10ENABLE": {
            "EPTX00ENABLE": [1, 0, 0, 0],
            "EPTX01ENABLE": [0, 0, 0, 0],
            "EPTX02ENABLE": [1, 0, 0, 0],
            "EPTX03ENABLE": [0, 0, 0, 0],
            "EPTX10ENABLE": [1, 0, 0, 0],
            "EPTX11ENABLE": [0, 0, 0, 0],
            "EPTX12ENABLE": [1, 0, 0, 0],
            "EPTX13ENABLE": [0, 0, 0, 0]
        },
        "EPTX11CHNCNTR": {
            "EPTX11DRIVESTRENGTH": [0, 0, 0, 0],
            "EPTX11PREEMPHASISMODE": [0, 0, 0, 0],
            "EPTX11PREEMPHASISSTRENGTH": [0, 0, 0, 0]
        },
        "EPTX11_10CHNCNTR": {
            "EPTX10INVERT": [0, 0, 0, 0],
            "EPTX10PREEMPHASISWIDTH": [0, 0, 0, 0],
            "EPTX11INVERT": [0, 0, 0, 0],
            "EPTX11PREEMPHASISWIDTH": [0, 0, 0, 0]
        },
        "EPTX12CHNCNTR": {
            "EPTX12DRIVESTRENGTH": [7, 0, 0, 0],
            "EPTX12PREEMPHASISMODE": [3, 0, 0, 0],
            "EPTX12PREEMPHASISSTRENGTH": [7, 0, 0, 0]
        },
        "EPTX13CHNCNTR": {
            "EPTX13DRIVESTRENGTH": [0, 0, 0, 0],
            "EPTX13PREEMPHASISMODE": [0, 0, 0, 0],
            "EPTX13PREEMPHASISSTRENGTH": [0, 0, 0, 0]
        },
        "EPTX13_12CHNCNTR": {
            "EPTX12INVERT": [0, 0, 0, 0],
            "EPTX12PREEMPHASISWIDTH": [0, 0, 0, 0],
            "EPTX13INVERT": [0, 0, 0, 0],
            "EPTX13PREEMPHASISWIDTH": [0, 0, 0, 0]
        },
        "EPTX20CHNCNTR": {
            "EPTX20DRIVESTRENGTH": [7, 0, 0, 0],
            "EPTX20PREEMPHASISMODE": [3, 0, 0, 0],
            "EPTX20PREEMPHASISSTRENGTH": [7, 0, 0, 0]
        },
        "EPTX21CHNCNTR": {
            "EPTX21DRIVESTRENGTH": [0, 0, 0, 0],
            "EPTX21PREEMPHASISMODE": [0, 0, 0, 0],
            "EPTX21PREEMPHASISSTRENGTH": [0, 0, 0, 0]
        },
        "EPTX21_20CHNCNTR": {
            "EPTX20INVERT": [1, 0, 0, 0],
            "EPTX20PREEMPHASISWIDTH": [0, 0, 0, 0],
            "EPTX21INVERT": [0, 0, 0, 0],
            "EPTX21PREEMPHASISWIDTH": [0, 0, 0, 0]
        },
        "EPTX22CHNCNTR": {
            "EPTX22DRIVESTRENGTH": [7, 0, 0, 0],
            "EPTX22PREEMPHASISMODE": [3, 0, 0, 0],
            "EPTX22PREEMPHASISSTRENGTH": [7, 0, 0, 0]
        },
        "EPTX23CHNCNTR": {
            "EPTX23DRIVESTRENGTH": [0, 0, 0, 0],
            "EPTX23PREEMPHASISMODE": [0, 0, 0, 0],
            "EPTX23PREEMPHASISSTRENGTH": [0, 0, 0, 0]
        },
        "EPTX23_22CHNCNTR": {
            "EPTX22INVERT": [1, 0, 0, 0],
            "EPTX22PREEMPHASISWIDTH": [0, 0, 0, 0],
            "EPTX23INVERT": [0, 0, 0, 0],
            "EPTX23PREEMPHASISWIDTH": [0, 0, 0, 0]
        },
        "EPTX30CHNCNTR": {
            "EPTX30DRIVESTRENGTH": [7, 0, 0, 0],
            "EPTX30PREEMPHASISMODE": [3, 0, 0, 0],
            "EPTX30PREEMPHASISSTRENGTH": [7, 0, 0, 0]
        },
        "EPTX31CHNCNTR": {
            "EPTX31DRIVESTRENGTH": [0, 0, 0, 0],
            "EPTX31PREEMPHASISMODE": [0, 0, 0, 0],
            "EPTX31PREEMPHASISSTRENGTH": [0, 0, 0, 0]
        },
        "EPTX31_30CHNCNTR": {
            "EPTX30INVERT": [1, 0, 0, 0],
            "EPTX30PREEMPHASISWIDTH": [0, 0, 0, 0],
            "EPTX31INVERT": [0, 0, 0, 0],
            "EPTX31PREEMPHASISWIDTH": [0, 0, 0, 0]
        },
        "EPTX32CHNCNTR": {
            "EPTX32DRIVESTRENGTH": [7, 0, 0, 0],
            "EPTX32PREEMPHASISMODE": [3, 0, 0, 0],
            "EPTX32PREEMPHASISSTRENGTH": [7, 0, 0, 0]
        },
        "EPTX32ENABLE": {
            "EPTX20ENABLE": [1, 0, 0, 0],
            "EPTX21ENABLE": [0, 0, 0, 0],
            "EPTX22ENABLE": [1, 0, 0, 0],
            "EPTX23ENABLE": [0, 0, 0, 0],
            "EPTX30ENABLE": [1, 0, 0, 0],
            "EPTX31ENABLE": [0, 0, 0, 0],
            "EPTX32ENABLE": [1, 0, 0, 0],
            "EPTX33ENABLE": [0, 0, 0, 0]
        },
        "EPTX33CHNCNTR": {
            "EPTX33DRIVESTRENGTH": [0, 0, 0, 0],
            "EPTX33PREEMPHASISMODE": [0, 0, 0, 0],
            "EPTX33PREEMPHASISSTRENGTH": [0, 0, 0, 0]
        },
        "EPTX33_32CHNCNTR": {
            "EPTX32INVERT": [1, 0, 0, 0],
            "EPTX32PREEMPHASISWIDTH": [0, 0, 0, 0],
            "EPTX33INVERT": [0, 0, 0, 0],
            "EPTX33PREEMPHASISWIDTH": [0, 0, 0, 0]
        },
        "EPTXCONTROL": {
            "EPTX0MIRRORENABLE": [0, 0, 0, 0],
            "EPTX1MIRRORENABLE": [0, 0, 0, 0],
            "EPTX2MIRRORENABLE": [0, 0, 0, 0],
            "EPTX3MIRRORENABLE": [0, 0, 0, 0]
        },
        "EPTXDATARATE": {
            "EPTX0DATARATE": [2, 0, 0, 0],
            "EPTX1DATARATE": [2, 0, 0, 0],
            "EPTX2DATARATE": [2, 0, 0, 0],
            "EPTX3DATARATE": [2, 0, 0, 0]
        },
        "EPTXECCHNCNTR": {
            "EPTXECDRIVESTRENGTH": [0, 0, 0, 0],
            "EPTXECENABLE": [0, 0, 0, 0],
            "EPTXECINVERT": [0, 0, 0, 0],
            "EPTXECTRISTATE": [0, 0, 0, 0]
        },
        "EPTXECCHNCNTR2": {
            "EPTXECPREEMPHASISMODE": [0, 0, 0, 0],
            "EPTXECPREEMPHASISSTRENGTH": [0, 0, 0, 0],
            "EPTXECPREEMPHASISWIDTH": [0, 0, 0, 0]
        },
        "EPTXLOWRES0": {
            "EPTX00LOWRES": [0, 0, 0, 0],
            "EPTX01LOWRES": [0, 0, 0, 0],
            "EPTX02LOWRES": [0, 0, 0, 0],
            "EPTX03LOWRES": [0, 0, 0, 0],
            "EPTX10LOWRES": [0, 0, 0, 0],
            "EPTX11LOWRES": [0, 0, 0, 0],
            "EPTX12LOWRES": [0, 0, 0, 0],
            "EPTX13LOWRES": [0, 0, 0, 0]
        },
        "EPTXLOWRES1": {
            "EPTX20LOWRES": [0, 0, 0, 0],
            "EPTX21LOWRES": [0, 0, 0, 0],
            "EPTX22LOWRES": [0, 0, 0, 0],
            "EPTX23LOWRES": [0, 0, 0, 0],
            "EPTX30LOWRES": [0, 0, 0, 0],
            "EPTX31LOWRES": [0, 0, 0, 0],
            "EPTX32LOWRES": [0, 0, 0, 0],
            "EPTX33LOWRES": [0, 0, 0, 0]
        },
        "EQCONFIG": {
            "EQATTENUATION": [3, 0, 0, 0],
            "EQCAP": [0, 0, 0, 0]
        },
        "EQRES": {
            "EQRES0": [0, 0, 0, 0],
            "EQRES1": [0, 0, 0, 0],
            "EQRES2": [0, 0, 0, 0],
            "EQRES3": [0, 0, 0, 0]
        },
        "FAMAXHEADERFOUNDCOUNT": {
            "FAMAXHEADERFOUNDCOUNT": [16, 0, 0, 0]
        },
        "FAMAXHEADERFOUNDCOUNTAFTERNF": {
            "FAMAXHEADERFOUNDCOUNTAFTERNF": [16, 0, 0, 0]
        },
        "FAMAXHEADERNOTFOUNDCOUNT": {
            "FAMAXHEADERNOTFOUNDCOUNT": [16, 0, 0, 0]
        },
        "FORCEENABLE": {
            "FORCERXENABLE": [0, 0, 0, 0],
            "FORCETXENABLE": [0, 0, 0, 0],
            "I2CMCLKALWAYSENABLE": [0, 0, 0, 0],
            "LDFORCEENABLE": [0, 0, 0, 0],
            "PSFSMCLKALWAYSON": [0, 0, 0, 0]
        },
        "FUSEBLOWADDH": {
            "FUSEBLOWADDRESS": [0, 0, 0, 0]
        },
        "FUSEBLOWADDL": {
            "FUSEBLOWADDRESS": [0, 0, 0, 0]
        },
        "FUSEBLOWDATAA": {
            "FUSEBLOWDATA": [0, 0, 0, 0]
        },
        "FUSEBLOWDATAB": {
            "FUSEBLOWDATA": [0, 0, 0, 0]
        },
        "FUSEBLOWDATAC": {
            "FUSEBLOWDATA": [0, 0, 0, 0]
        },
        "FUSEBLOWDATAD": {
            "FUSEBLOWDATA": [0, 0, 0, 0]
        },
        "FUSECONTROL": {
            "FUSEBLOW": [0, 0, 0, 0],
            "FUSEBLOWPULSELENGTH": [0, 0, 0, 0],
            "FUSEREAD": [0, 0, 0, 0]
        },
        "FUSEMAGIC": {
            "FUSEMAGICNUMBER": [0, 0, 0, 0]
        },
        "I2CM0ADDRESS": {
            "I2CM0ADDRESS": [0, 0, 0, 0]
        },
        "I2CM0CMD": {
            "I2CM0CMD": [0, 0, 0, 0]
        },
        "I2CM0CONFIG": {
            "I2CM0ADDRESSEXT": [0, 0, 0, 0],
            "I2CM0SCLDRIVESTRENGTH": [0, 0, 0, 0],
            "I2CM0SCLPULLUPENABLE": [1, 0, 0, 0],
            "I2CM0SDADRIVESTRENGTH": [0, 0, 0, 0],
            "I2CM0SDAPULLUPENABLE": [1, 0, 0, 0]
        },
        "I2CM0DATA0": {
            "I2CM0DATA": [0, 0, 0, 0]
        },
        "I2CM0DATA1": {
            "I2CM0DATA": [0, 0, 0, 0]
        },
        "I2CM0DATA2": {
            "I2CM0DATA": [0, 0, 0, 0]
        },
        "I2CM0DATA3": {
            "I2CM0DATA": [0, 0, 0, 0]
        },
        "I2CM1ADDRESS": {
            "I2CM1ADDRESS": [0, 0, 0, 0]
        },
        "I2CM1CMD": {
            "I2CM1CMD": [0, 0, 0, 0]
        },
        "I2CM1CONFIG": {
            "I2CM1ADDRESSEXT": [0, 0, 0, 0],
            "I2CM1SCLDRIVESTRENGTH": [0, 0, 0, 0],
            "I2CM1SCLPULLUPENABLE": [1, 0, 0, 0],
            "I2CM1SDADRIVESTRENGTH": [0, 0, 0, 0],
            "I2CM1SDAPULLUPENABLE": [1, 0, 0, 0]
        },
        "I2CM1DATA0": {
            "I2CM1DATA": [0, 0, 0, 0]
        },
        "I2CM1DATA1": {
            "I2CM1DATA": [0, 0, 0, 0]
        },
        "I2CM1DATA2": {
            "I2CM1DATA": [0, 0, 0, 0]
        },
        "I2CM1DATA3": {
            "I2CM1DATA": [0, 0, 0, 0]
        },
        "I2CM2ADDRESS": {
            "I2CM2ADDRESS": [0, 0, 0, 0]
        },
        "I2CM2CMD": {
            "I2CM2CMD": [0, 0, 0, 0]
        },
        "I2CM2CONFIG": {
            "I2CM2ADDRESSEXT": [0, 0, 0, 0],
            "I2CM2SCLDRIVESTRENGTH": [1, 0, 0, 0],
            "I2CM2SCLPULLUPENABLE": [0, 0, 0, 0],
            "I2CM2SDADRIVESTRENGTH": [0, 0, 0, 0],
            "I2CM2SDAPULLUPENABLE": [1, 0, 0, 0]
        },
        "I2CM2DATA0": {
            "I2CM2DATA": [0, 0, 0, 0]
        },
        "I2CM2DATA1": {
            "I2CM2DATA": [0, 0, 0, 0]
        },
        "I2CM2DATA2": {
            "I2CM2DATA": [0, 0, 0, 0]
        },
        "I2CM2DATA3": {
            "I2CM2DATA": [0, 0, 0, 0]
        },
        "I2CMCLKDISABLE": {
            "I2CM0CLKDISABLE": [0, 0, 0, 0],
            "I2CM1CLKDISABLE": [0, 0, 0, 0],
            "I2CM2CLKDISABLE": [0, 0, 0, 0]
        },
        "I2CMTRANSADDRESS": {
            "I2CMTRANSADDRESS": [0, 0, 0, 0]
        },
        "I2CMTRANSCONFIG": {
            "I2CMTRANS10BITADDR": [0, 0, 0, 0],
            "I2CMTRANSADDRESSEXT": [0, 0, 0, 0],
            "I2CMTRANSCHANNEL": [0, 0, 0, 0],
            "I2CMTRANSENABLE": [0, 0, 0, 0]
        },
        "I2CMTRANSCTRL": {
            "I2CMTRANSCTRL": [0, 0, 0, 0]
        },
        "I2CMTRANSDATA0": {
            "I2CMTRANSDATA": [0, 0, 0, 0]
        },
        "I2CMTRANSDATA1": {
            "I2CMTRANSDATA": [0, 0, 0, 0]
        },
        "I2CMTRANSDATA10": {
            "I2CMTRANSDATA": [0, 0, 0, 0]
        },
        "I2CMTRANSDATA11": {
            "I2CMTRANSDATA": [0, 0, 0, 0]
        },
        "I2CMTRANSDATA12": {
            "I2CMTRANSDATA": [0, 0, 0, 0]
        },
        "I2CMTRANSDATA13": {
            "I2CMTRANSDATA": [0, 0, 0, 0]
        },
        "I2CMTRANSDATA14": {
            "I2CMTRANSDATA": [0, 0, 0, 0]
        },
        "I2CMTRANSDATA15": {
            "I2CMTRANSDATA": [0, 0, 0, 0]
        },
        "I2CMTRANSDATA2": {
            "I2CMTRANSDATA": [0, 0, 0, 0]
        },
        "I2CMTRANSDATA3": {
            "I2CMTRANSDATA": [0, 0, 0, 0]
        },
        "I2CMTRANSDATA4": {
            "I2CMTRANSDATA": [0, 0, 0, 0]
        },
        "I2CMTRANSDATA5": {
            "I2CMTRANSDATA": [0, 0, 0, 0]
        },
        "I2CMTRANSDATA6": {
            "I2CMTRANSDATA": [0, 0, 0, 0]
        },
        "I2CMTRANSDATA7": {
            "I2CMTRANSDATA": [0, 0, 0, 0]
        },
        "I2CMTRANSDATA8": {
            "I2CMTRANSDATA": [0, 0, 0, 0]
        },
        "I2CMTRANSDATA9": {
            "I2CMTRANSDATA": [0, 0, 0, 0]
        },
        "LDCONFIGH": {
            "LDEMPHASISENABLE": [0, 0, 0, 0],
            "LDMODULATIONCURRENT": [127, 127, 127, 127]
        },
        "LDCONFIGL": {
            "LDEMPHASISAMP": [0, 0, 0, 0],
            "LDEMPHASISSHORT": [0, 0, 0, 0]
        },
        "PGCONFIG": {
            "PGDELAY": [0, 0, 0, 0],
            "PGENABLE": [0, 0, 0, 0],
            "PGLEVEL": [0, 0, 0, 0]
        },
        "PIODIRH": {
            "PIODIR": [0, 0, 0, 0]
        },
        "PIODIRL": {
            "PIODIR": [0, 0, 0, 0]
        },
        "PIODRIVESTRENGTHH": {
            "PIODRIVESTRENGTH": [0, 0, 0, 0]
        },
        "PIODRIVESTRENGTHL": {
            "PIODRIVESTRENGTH": [0, 0, 0, 0]
        },
        "PIOOUTH": {
            "PIOOUT": [0, 0, 0, 0]
        },
        "PIOOUTL": {
            "PIOOUT": [0, 0, 0, 0]
        },
        "PIOPULLENAH": {
            "PIOPULLENABLE": [0, 0, 0, 0]
        },
        "PIOPULLENAL": {
            "PIOPULLENABLE": [0, 0, 0, 0]
        },
        "PIOUPDOWNH": {
            "PIOUPDOWN": [0, 0, 0, 0]
        },
        "PIOUPDOWNL": {
            "PIOUPDOWN": [0, 0, 0, 0]
        },
        "POWERUP0": {
            "PUSMPLLTIMEOUTCONFIG": [0, 0, 0, 0],
            "PUSMREADYWHENCHNSLOCKED": [0, 0, 0, 0]
        },
        "POWERUP1": {
            "PUSMCHANNELSTIMEOUTCONFIG": [0, 0, 0, 0],
            "PUSMDLLTIMEOUTCONFIG": [0, 0, 0, 0]
        },
        "POWERUP2": {
            "DLLCONFIGDONE": [1, 1, 1, 1],
            "PLLCONFIGDONE": [1, 1, 1, 1]
        },
        "POWERUP3": {
            "PUSMFORCESTATE": [0, 0, 0, 0],
            "PUSMSTATEFORCED": [0, 0, 0, 0]
        },
        "POWERUP4": {
            "PUSMFORCEMAGIC": [0, 0, 0, 0]
        },
        "PROCESSANDSEUMONITOR": {
            "PMCHANNEL": [0, 0, 0, 0],
            "PMENABLE": [0, 0, 0, 0],
            "SEUENABLE": [0, 0, 0, 0]
        },
        "PS0CONFIG": {
            "PS0DELAY": [0, 0, 0, 0],
            "PS0DRIVESTRENGTH": [0, 0, 0, 0],
            "PS0ENABLEFINETUNE": [0, 0, 0, 0],
            "PS0FREQ": [0, 0, 0, 0]
        },
        "PS0DELAY": {
            "PS0DELAY": [0, 0, 0, 0]
        },
        "PS0OUTDRIVER": {
            "PS0PREEMPHASISMODE": [0, 0, 0, 0],
            "PS0PREEMPHASISSTRENGTH": [0, 0, 0, 0],
            "PS0PREEMPHASISWIDTH": [0, 0, 0, 0]
        },
        "PS1CONFIG": {
            "PS1DELAY": [0, 0, 0, 0],
            "PS1DRIVESTRENGTH": [0, 0, 0, 0],
            "PS1ENABLEFINETUNE": [0, 0, 0, 0],
            "PS1FREQ": [0, 0, 0, 0]
        },
        "PS1DELAY": {
            "PS1DELAY": [0, 0, 0, 0]
        },
        "PS1OUTDRIVER": {
            "PS1PREEMPHASISMODE": [0, 0, 0, 0],
            "PS1PREEMPHASISSTRENGTH": [0, 0, 0, 0],
            "PS1PREEMPHASISWIDTH": [0, 0, 0, 0]
        },
        "PS2CONFIG": {
            "PS2DELAY": [0, 0, 0, 0],
            "PS2DRIVESTRENGTH": [0, 0, 0, 0],
            "PS2ENABLEFINETUNE": [0, 0, 0, 0],
            "PS2FREQ": [0, 0, 0, 0]
        },
        "PS2DELAY": {
            "PS2DELAY": [0, 0, 0, 0]
        },
        "PS2OUTDRIVER": {
            "PS2PREEMPHASISMODE": [0, 0, 0, 0],
            "PS2PREEMPHASISSTRENGTH": [0, 0, 0, 0],
            "PS2PREEMPHASISWIDTH": [0, 0, 0, 0]
        },
        "PS3CONFIG": {
            "PS3DELAY": [0, 0, 0, 0],
            "PS3DRIVESTRENGTH": [0, 0, 0, 0],
            "PS3ENABLEFINETUNE": [0, 0, 0, 0],
            "PS3FREQ": [0, 0, 0, 0]
        },
        "PS3DELAY": {
            "PS3DELAY": [0, 0, 0, 0]
        },
        "PS3OUTDRIVER": {
            "PS3PREEMPHASISMODE": [0, 0, 0, 0],
            "PS3PREEMPHASISSTRENGTH": [0, 0, 0, 0],
            "PS3PREEMPHASISWIDTH": [0, 0, 0, 0]
        },
        "PSDLLCONFIG": {
            "PSDLLCONFIRMCOUNT": [0, 0, 0, 0],
            "PSDLLCURRENTSEL": [0, 0, 0, 0]
        },
        "PSLOWRES": {
            "PS0LOWRES": [0, 0, 0, 0],
            "PS1LOWRES": [0, 0, 0, 0],
            "PS2LOWRES": [0, 0, 0, 0],
            "PS3LOWRES": [0, 0, 0, 0]
        },
        "READY": {
            "READYCHNSENABLE": [0, 0, 0, 0],
            "READYCLKGENABLE": [0, 0, 0, 0],
            "READYDLLSENABLE": [0, 0, 0, 0],
            "READYPUSMDISABLE": [0, 0, 0, 0]
        },
        "REFCLK": {
            "REFCLKACBIAS": [0, 0, 0, 0],
            "REFCLKFORCEENABLE": [0, 0, 0, 0],
            "REFCLKTERM": [0, 0, 0, 0]
        },
        "RESETCONFIG": {
            "BODENABLE": [0, 0, 0, 0],
            "BODLEVEL": [0, 0, 0, 0]
        },
        "RST0": {
            "RSTCONFIG": [0, 0, 0, 0],
            "RSTFUSES": [0, 0, 0, 0],
            "RSTI2CM0": [0, 0, 0, 0],
            "RSTI2CM1": [0, 0, 0, 0],
            "RSTI2CM2": [0, 0, 0, 0],
            "RSTPLLDIGITAL": [0, 0, 0, 0],
            "RSTRXLOGIC": [0, 0, 0, 0],
            "RSTTXLOGIC": [0, 0, 0, 0]
        },
        "RST1": {
            "RSTEPRX0DLL": [0, 0, 0, 0],
            "RSTEPRX1DLL": [0, 0, 0, 0],
            "RSTEPRX2DLL": [0, 0, 0, 0],
            "RSTEPRX3DLL": [0, 0, 0, 0],
            "RSTEPRX4DLL": [0, 0, 0, 0],
            "RSTEPRX5DLL": [0, 0, 0, 0],
            "RSTEPRX6DLL": [0, 0, 0, 0],
            "RSTFRAMEALIGNER": [0, 0, 0, 0]
        },
        "RST2": {
            "RESETOUTFORCEACTIVE": [0, 0, 0, 0],
            "RSTPS0DLL": [0, 0, 0, 0],
            "RSTPS1DLL": [0, 0, 0, 0],
            "RSTPS2DLL": [0, 0, 0, 0],
            "RSTPS3DLL": [0, 0, 0, 0],
            "SKIPFORCE": [0, 0, 0, 0]
        },
        "SCCONFIG": {
            "SCPARITYCHECKDISABLE": [0, 0, 0, 0]
        },
        "TEMPCALH": {
            "TEMPCAL": [0, 0, 0, 0]
        },
        "TEMPCALL": {
            "TEMPCAL": [0, 0, 0, 0]
        },
        "TO0SEL": {
            "TO0SELECT": [0, 0, 0, 0]
        },
        "TO1SEL": {
            "TO1SELECT": [0, 0, 0, 0]
        },
        "TO2SEL": {
            "TO2SELECT": [0, 0, 0, 0]
        },
        "TO3SEL": {
            "TO3SELECT": [0, 0, 0, 0]
        },
        "TO4DRIVER": {
            "TO4DRIVESTRENGTH": [0, 0, 0, 0],
            "TO4PREEMPHASISMODE": [0, 0, 0, 0],
            "TO4PREEMPHASISSTRENGTH": [0, 0, 0, 0]
        },
        "TO4SEL": {
            "TO4SELECT": [0, 0, 0, 0]
        },
        "TO5DRIVER": {
            "TO5DRIVESTRENGTH": [0, 0, 0, 0],
            "TO5PREEMPHASISMODE": [0, 0, 0, 0],
            "TO5PREEMPHASISSTRENGTH": [0, 0, 0, 0]
        },
        "TO5SEL": {
            "TO5SELECT": [0, 0, 0, 0]
        },
        "TODRIVINGSTRENGTH": {
            "TO0DS": [0, 0, 0, 0],
            "TO1DS": [0, 0, 0, 0],
            "TO2DS": [0, 0, 0, 0],
            "TO3DS": [0, 0, 0, 0]
        },
        "TOPREEMP": {
            "TO4INVERT": [0, 0, 0, 0],
            "TO4PREEMPHASISWIDTH": [0, 0, 0, 0],
            "TO5INVERT": [0, 0, 0, 0],
            "TO5PREEMPHASISWIDTH": [0, 0, 0, 0]
        },
        "ULDATASOURCE0": {
            "ULECDATASOURCE": [0, 0, 0, 0],
            "ULSERTESTPATTERN": [0, 0, 0, 0]
        },
        "ULDATASOURCE1": {
            "LDDATASOURCE": [0, 0, 0, 0],
            "ULG0DATASOURCE": [0, 0, 0, 0],
            "ULG1DATASOURCE": [0, 0, 0, 0]
        },
        "ULDATASOURCE2": {
            "ULG2DATASOURCE": [0, 0, 0, 0],
            "ULG3DATASOURCE": [0, 0, 0, 0]
        },
        "ULDATASOURCE3": {
            "ULG4DATASOURCE": [0, 0, 0, 0],
            "ULG5DATASOURCE": [0, 0, 0, 0]
        },
        "ULDATASOURCE4": {
            "DLECDATASOURCE": [0, 0, 0, 0],
            "ULG6DATASOURCE": [0, 0, 0, 0],
            "ULICDATASOURCE": [0, 0, 0, 0]
        },
        "ULDATASOURCE5": {
            "DLG0DATASOURCE": [0, 0, 0, 0],
            "DLG1DATASOURCE": [0, 0, 0, 0],
            "DLG2DATASOURCE": [0, 0, 0, 0],
            "DLG3DATASOURCE": [0, 0, 0, 0]
        },
        "USERID0": {
            "USERID": [0, 0, 0, 0]
        },
        "USERID1": {
            "USERID": [0, 0, 0, 0]
        },
        "USERID2": {
            "USERID": [0, 0, 0, 0]
        },
        "USERID3": {
            "USERID": [0, 0, 0, 0]
        },
        "VREFCNTR": {
            "VREFENABLE": [0, 0, 0, 0]
        },
        "VREFTUNE": {
            "VREFTUNE": [0, 0, 0, 0]
        },
        "WATCHDOG": {
            "PUSMCHECKSUMWDOGENABLE": [0, 0, 0, 0],
            "PUSMDLLWDOGDISABLE": [0, 0, 0, 0],
            "PUSMPLLWDOGDISABLE": [0, 0, 0, 0]
        }
    },

    "gbcr": {
        "CH1DOWNLINK0": {
            "TX1DISDLEMP": [0, 0, 0, 0],
            "TX1DLATT": [3, 3, 3, 3],
            "TX1DLSR": [5, 5, 5, 5]
        },
        "CH1DOWNLINK1": {
            "TX1DISDLBIAS": [0, 0, 0, 0],
            "TX1DISDLLPFBIAS": [1, 1, 1, 1]
        },
        "CH1UPLINK0": {
            "CH1CMLAMPLSEL": [7, 7, 7, 7],
            "CH1DISEQLF": [1, 1, 1, 1],
            "CH1EQATT": [3, 3, 3, 3]
        },
        "CH1UPLINK1": {
            "CH1CTLEHFSR": [8, 8, 8, 8],
            "CH1CTLEMFSR": [8, 8, 8, 8]
        },
        "CH1UPLINK2": {
            "CH1DIS": [0, 0, 0, 0],
            "CH1DISDFF": [1, 1, 1, 1],
            "CH1DISLPF": [0, 0, 0, 0]
        },
        "CH2DOWNLINK0": {
            "TX2DISDLEMP": [0, 0, 0, 0],
            "TX2DLATT": [3, 3, 3, 3],
            "TX2DLSR": [5, 5, 5, 5]
        },
        "CH2DOWNLINK1": {
            "TX2DISDLBIAS": [0, 0, 0, 0],
            "TX2DISDLLPFBIAS": [1, 1, 1, 1]
        },
        "CH2UPLINK0": {
            "CH2CMLAMPLSEL": [7, 7, 7, 7],
            "CH2DISEQLF": [1, 1, 1, 1],
            "CH2EQATT": [3, 3, 3, 3]
        },
        "CH2UPLINK1": {
            "CH2CTLEHFSR": [8, 8, 8, 8],
            "CH2CTLEMFSR": [8, 8, 8, 8]
        },
        "CH2UPLINK2": {
            "CH2DIS": [0, 0, 0, 0],
            "CH2DISDFF": [1, 1, 1, 1],
            "CH2DISLPF": [0, 0, 0, 0]
        },
        "CH3UPLINK0": {
            "CH3CMLAMPLSEL": [7, 7, 7, 7],
            "CH3DISEQLF": [1, 1, 1, 1],
            "CH3EQATT": [3, 3, 3, 3]
        },
        "CH3UPLINK1": {
            "CH3CTLEHFSR": [8, 8, 8, 8],
            "CH3CTLEMFSR": [8, 8, 8, 8]
        },
        "CH3UPLINK2": {
            "CH3DIS": [0, 0, 0, 0],
            "CH3DISDFF": [1, 1, 1, 1],
            "CH3DISLPF": [0, 0, 0, 0]
        },
        "CH4UPLINK0": {
            "CH4CMLAMPLSEL": [7, 7, 7, 7],
            "CH4DISEQLF": [1, 1, 1, 1],
            "CH4EQATT": [3, 3, 3, 3]
        },
        "CH4UPLINK1": {
            "CH4CTLEHFSR": [8, 8, 8, 8],
            "CH4CTLEMFSR": [8, 8, 8, 8]
        },
        "CH4UPLINK2": {
            "CH4DIS": [0, 0, 0, 0],
            "CH4DISDFF": [1, 1, 1, 1],
            "CH4DISLPF": [0, 0, 0, 0]
        },
        "CH5UPLINK0": {
            "CH5CMLAMPLSEL": [7, 7, 7, 7],
            "CH5DISEQLF": [1, 1, 1, 1],
            "CH5EQATT": [3, 3, 3, 3]
        },
        "CH5UPLINK1": {
            "CH5CTLEHFSR": [8, 8, 8, 8],
            "CH5CTLEMFSR": [8, 8, 8, 8]
        },
        "CH5UPLINK2": {
            "CH5DIS": [0, 0, 0, 0],
            "CH5DISDFF": [1, 1, 1, 1],
            "CH5DISLPF": [0, 0, 0, 0]
        },
        "CH6UPLINK0": {
            "CH6CMLAMPLSEL": [7, 7, 7, 7],
            "CH6DISEQLF": [1, 1, 1, 1],
            "CH6EQATT": [3, 3, 3, 3]
        },
        "CH6UPLINK1": {
            "CH6CTLEHFSR": [8, 8, 8, 8],
            "CH6CTLEMFSR": [8, 8, 8, 8]
        },
        "CH6UPLINK2": {
            "CH6DIS": [0, 0, 0, 0],
            "CH6DISDFF": [1, 1, 1, 1],
            "CH6DISLPF": [0, 0, 0, 0]
        },
        "CH7UPLINK0": {
            "CH7CMLAMPLSEL": [7, 7, 7, 7],
            "CH7DISEQLF": [1, 1, 1, 1],
            "CH7EQATT": [3, 3, 3, 3]
        },
        "CH7UPLINK1": {
            "CH7CTLEHFSR": [8, 8, 8, 8],
            "CH7CTLEMFSR": [8, 8, 8, 8]
        },
        "CH7UPLINK2": {
            "CH7DIS": [0, 0, 0, 0],
            "CH7DISDFF": [1, 1, 1, 1],
            "CH7DISLPF": [0, 0, 0, 0]
        },
        "LVDSRXTX": {
            "DISTX": [0, 0, 0, 0],
            "RXEN": [1, 1, 1, 1],
            "RXENTERMINATION": [1, 1, 1, 1],
            "RXEQ": [0, 0, 0, 0],
            "RXINVDATA": [0, 0, 0, 0],
            "RXSETCM": [1, 1, 1, 1]
        },
        "PHASESHIFTER0": {
            "DLLCAPRESET": [0, 0, 0, 0],
            "DLLENABLE": [1, 1, 1, 1]
        },
        "PHASESHIFTER1": {
            "DLLCHARGEPUMPCURRENT": [15, 15, 15, 15],
            "DLLFORCEDOWN": [1, 1, 1, 1]
        },
        "PHASESHIFTER2": {
            "DLLCLOCKDELAYCH6": [5, 5, 5, 5],
            "DLLCLOCKDELAYCH7": [5, 5, 5, 5]
        },
        "PHASESHIFTER3": {
            "DLLCLOCKDELAYCH4": [5, 5, 5, 5],
            "DLLCLOCKDELAYCH5": [5, 5, 5, 5]
        },
        "PHASESHIFTER4": {
            "DLLCLOCKDELAYCH2": [5, 5, 5, 5],
            "DLLCLOCKDELAYCH3": [5, 5, 5, 5]
        },
        "PHASESHIFTER5": {
            "DLLCLOCKDELAYCH1": [5, 5, 5, 5],
            "DLLCLOCKDELAYCHTEST": [5, 5, 5, 5]
        }
    },

    "vtrx": {
        "CH1BIAS": {
            "CH1Bias": 48
        },
        "CH1EMP": {
            "CH1EMPAMP": 0,
            "CH1EMPF": 0,
            "CH1EMPR": 0
        },
        "CH1MOD": {
            "CH1MOD": 32,
            "CH1MODEN": 1
        },
        "CH2BIAS": {
            "CH2Bias": 48
        },
        "CH2EMP": {
            "CH2EMPAMP": 0,
            "CH2EMPF": 0,
            "CH2EMPR": 0
        },
        "CH2MOD": {
            "CH2MOD": 32,
            "CH2MODEN": 1
        },
        "CH3BIAS": {
            "CH3Bias": 48
        },
        "CH3EMP": {
            "CH3EMPAMP": 0,
            "CH3EMPF": 0,
            "CH3EMPR": 0
        },
        "CH3MOD": {
            "CH3MOD": 32,
            "CH3MODEN": 1
        },
        "CH4BIAS": {
            "CH4Bias": 48
        },
        "CH4EMP": {
            "CH4EMPAMP": 0,
            "CH4EMPF": 0,
            "CH4EMPR": 0
        },
        "CH4MOD": {
            "CH4MOD": 32,
            "CH4MODEN": 1
        },
        "GCR": {
            "CH1EN": 1,
            "CH2EN": 1,
            "CH3EN": 1,
            "CH4EN": 1
        },
        "SDACNT": {
            "DRVSDA": 0,
            "SDADS": 1
        }
    }
}
